-- Merging decision tree log ---
manifest
ADDED from /Users/macbookm1pro/Freelance/e-absensikasn/android/app/src/main/AndroidManifest.xml:1:1-32:12
INJECTED from /Users/macbookm1pro/Freelance/e-absensikasn/android/app/src/main/AndroidManifest.xml:1:1-32:12
INJECTED from /Users/macbookm1pro/Freelance/e-absensikasn/android/app/src/main/AndroidManifest.xml:1:1-32:12
INJECTED from /Users/macbookm1pro/Freelance/e-absensikasn/android/app/src/main/AndroidManifest.xml:1:1-32:12
MERGED from [:react-native-community_async-storage] /Users/macbookm1pro/Freelance/e-absensikasn/node_modules/@react-native-community/async-storage/android/build/intermediates/library_manifest/release/AndroidManifest.xml:2:1-9:12
MERGED from [:react-native-community_geolocation] /Users/macbookm1pro/Freelance/e-absensikasn/node_modules/@react-native-community/geolocation/android/build/intermediates/library_manifest/release/AndroidManifest.xml:2:1-9:12
MERGED from [:react-native-community_toolbar-android] /Users/macbookm1pro/Freelance/e-absensikasn/node_modules/@react-native-community/toolbar-android/android/build/intermediates/library_manifest/release/AndroidManifest.xml:2:1-11:12
MERGED from [:react-native-android-location-enabler] /Users/macbookm1pro/Freelance/e-absensikasn/node_modules/react-native-android-location-enabler/android/build/intermediates/library_manifest/release/AndroidManifest.xml:2:1-11:12
MERGED from [:react-native-cardview] /Users/macbookm1pro/Freelance/e-absensikasn/node_modules/react-native-cardview/android/build/intermediates/library_manifest/release/AndroidManifest.xml:2:1-11:12
MERGED from [:react-native-code-push] /Users/macbookm1pro/Freelance/e-absensikasn/node_modules/react-native-code-push/android/app/build/intermediates/library_manifest/release/AndroidManifest.xml:2:1-17:12
MERGED from [:react-native-gesture-handler] /Users/macbookm1pro/Freelance/e-absensikasn/node_modules/react-native-gesture-handler/android/build/intermediates/library_manifest/release/AndroidManifest.xml:2:1-11:12
MERGED from [:react-native-image-picker] /Users/macbookm1pro/Freelance/e-absensikasn/node_modules/react-native-image-picker/android/build/intermediates/library_manifest/release/AndroidManifest.xml:2:1-23:12
MERGED from [:react-native-reanimated] /Users/macbookm1pro/Freelance/e-absensikasn/node_modules/react-native-reanimated/android/build/intermediates/library_manifest/release/AndroidManifest.xml:2:1-11:12
MERGED from [:react-native-vector-icons] /Users/macbookm1pro/Freelance/e-absensikasn/node_modules/react-native-vector-icons/android/build/intermediates/library_manifest/release/AndroidManifest.xml:2:1-11:12
MERGED from [:rn-fetch-blob] /Users/macbookm1pro/Freelance/e-absensikasn/node_modules/rn-fetch-blob/android/build/intermediates/library_manifest/release/AndroidManifest.xml:2:1-47:12
MERGED from [com.facebook.react:react-native:0.63.5] /Users/macbookm1pro/.gradle/caches/transforms-2/files-2.1/52346456014ea6b26359dc62b92dc3be/jetified-react-native-0.63.5/AndroidManifest.xml:2:1-13:12
MERGED from [androidx.appcompat:appcompat:1.0.2] /Users/macbookm1pro/.gradle/caches/transforms-2/files-2.1/37631cd0ab1b46aeb23414622984ad25/appcompat-1.0.2/AndroidManifest.xml:17:1-22:12
MERGED from [com.google.android.gms:play-services-location:17.0.0] /Users/macbookm1pro/.gradle/caches/transforms-2/files-2.1/cfe184b2b3fc6f019a80d581fc6f7447/play-services-location-17.0.0/AndroidManifest.xml:2:1-9:12
MERGED from [com.google.android.gms:play-services-base:17.0.0] /Users/macbookm1pro/.gradle/caches/transforms-2/files-2.1/fc8046cb9a5df9499609a5f7f8270b1b/play-services-base-17.0.0/AndroidManifest.xml:17:1-29:12
MERGED from [com.google.android.gms:play-services-places-placereport:17.0.0] /Users/macbookm1pro/.gradle/caches/transforms-2/files-2.1/7aa1097eb47596f6fc594d09cb57b709/play-services-places-placereport-17.0.0/AndroidManifest.xml:17:1-24:12
MERGED from [com.google.android.gms:play-services-tasks:17.0.0] /Users/macbookm1pro/.gradle/caches/transforms-2/files-2.1/a5841d1417e823e700e7ed3e71829aa8/play-services-tasks-17.0.0/AndroidManifest.xml:2:1-9:12
MERGED from [com.google.android.gms:play-services-basement:17.0.0] /Users/macbookm1pro/.gradle/caches/transforms-2/files-2.1/76f078f561b222e800a21b70aa1a106b/jetified-play-services-basement-17.0.0/AndroidManifest.xml:17:1-28:12
MERGED from [androidx.fragment:fragment:1.0.0] /Users/macbookm1pro/.gradle/caches/transforms-2/files-2.1/b728cfa27a34e7e631f60a7098e3dda9/fragment-1.0.0/AndroidManifest.xml:17:1-22:12
MERGED from [androidx.vectordrawable:vectordrawable-animated:1.0.0] /Users/macbookm1pro/.gradle/caches/transforms-2/files-2.1/a82e5d5eb6a0ae6bbe9bb4670cb6bef6/vectordrawable-animated-1.0.0/AndroidManifest.xml:17:1-22:12
MERGED from [androidx.legacy:legacy-support-core-ui:1.0.0] /Users/macbookm1pro/.gradle/caches/transforms-2/files-2.1/c4a0854b2c4c976f5fd7b439b5911773/legacy-support-core-ui-1.0.0/AndroidManifest.xml:17:1-22:12
MERGED from [androidx.swiperefreshlayout:swiperefreshlayout:1.0.0] /Users/macbookm1pro/.gradle/caches/transforms-2/files-2.1/37b6f551bc5ae153b0b627de8f563815/swiperefreshlayout-1.0.0/AndroidManifest.xml:17:1-22:12
MERGED from [org.webkit:android-jsc:r245459] /Users/macbookm1pro/.gradle/caches/transforms-2/files-2.1/6dd6245206e34676e1ee3aa6ee0f68c9/android-jsc-r245459/AndroidManifest.xml:2:1-11:12
MERGED from [com.facebook.fresco:fresco:2.0.0] /Users/macbookm1pro/.gradle/caches/transforms-2/files-2.1/454c96154d0a2efb5f34ced0245cf76d/fresco-2.0.0/AndroidManifest.xml:2:1-9:12
MERGED from [com.facebook.fresco:imagepipeline-okhttp3:2.0.0] /Users/macbookm1pro/.gradle/caches/transforms-2/files-2.1/559ddc4b7f576fedc63e05921b88e895/imagepipeline-okhttp3-2.0.0/AndroidManifest.xml:2:1-9:12
MERGED from [com.facebook.fresco:drawee:2.0.0] /Users/macbookm1pro/.gradle/caches/transforms-2/files-2.1/6c8969c989a883c90728abf2f80f32fb/drawee-2.0.0/AndroidManifest.xml:2:1-9:12
MERGED from [com.facebook.fresco:nativeimagefilters:2.0.0] /Users/macbookm1pro/.gradle/caches/transforms-2/files-2.1/5a2410130ba40b82b4f9bed40d7f483e/nativeimagefilters-2.0.0/AndroidManifest.xml:2:1-9:12
MERGED from [com.facebook.fresco:imagepipeline:2.0.0] /Users/macbookm1pro/.gradle/caches/transforms-2/files-2.1/13dda75bcf2643fb917d5dc46398410e/imagepipeline-2.0.0/AndroidManifest.xml:2:1-9:12
MERGED from [com.facebook.fresco:nativeimagetranscoder:2.0.0] /Users/macbookm1pro/.gradle/caches/transforms-2/files-2.1/c416dd8728d3ebccaf2e74e1e1aab223/nativeimagetranscoder-2.0.0/AndroidManifest.xml:2:1-9:12
MERGED from [com.facebook.fresco:imagepipeline-base:2.0.0] /Users/macbookm1pro/.gradle/caches/transforms-2/files-2.1/95ee73f6c014e94cc84e3a19f64125f8/imagepipeline-base-2.0.0/AndroidManifest.xml:2:1-9:12
MERGED from [com.facebook.soloader:soloader:0.9.0] /Users/macbookm1pro/.gradle/caches/transforms-2/files-2.1/c34148f30cbc3e974eff21cbfb6a112a/soloader-0.9.0/AndroidManifest.xml:2:1-13:12
MERGED from [androidx.interpolator:interpolator:1.0.0] /Users/macbookm1pro/.gradle/caches/transforms-2/files-2.1/efb592adf2592d134c27edc4a56e19d2/interpolator-1.0.0/AndroidManifest.xml:17:1-22:12
MERGED from [androidx.cardview:cardview:1.0.0] /Users/macbookm1pro/.gradle/caches/transforms-2/files-2.1/7ce8a2eb9e81825ec9bcc373c597a746/cardview-1.0.0/AndroidManifest.xml:17:1-22:12
MERGED from [androidx.transition:transition:1.1.0] /Users/macbookm1pro/.gradle/caches/transforms-2/files-2.1/0543f56f80f0ca8ae69e84c65fb92ce7/transition-1.1.0/AndroidManifest.xml:17:1-22:12
MERGED from [androidx.legacy:legacy-support-core-utils:1.0.0] /Users/macbookm1pro/.gradle/caches/transforms-2/files-2.1/1b42f88dea3794bc67b44839b4ca1a7b/legacy-support-core-utils-1.0.0/AndroidManifest.xml:17:1-22:12
MERGED from [androidx.vectordrawable:vectordrawable:1.0.1] /Users/macbookm1pro/.gradle/caches/transforms-2/files-2.1/c613ffd7e9899cda3aa79449c5d6a877/vectordrawable-1.0.1/AndroidManifest.xml:17:1-22:12
MERGED from [androidx.loader:loader:1.0.0] /Users/macbookm1pro/.gradle/caches/transforms-2/files-2.1/faa15558a5d57e35e462c9e1f0248694/loader-1.0.0/AndroidManifest.xml:17:1-22:12
MERGED from [androidx.viewpager:viewpager:1.0.0] /Users/macbookm1pro/.gradle/caches/transforms-2/files-2.1/40f1c5d439eea30faeaafe93e7bdf45f/viewpager-1.0.0/AndroidManifest.xml:17:1-22:12
MERGED from [androidx.coordinatorlayout:coordinatorlayout:1.0.0] /Users/macbookm1pro/.gradle/caches/transforms-2/files-2.1/1289d5f505a72781714dc6082144c977/coordinatorlayout-1.0.0/AndroidManifest.xml:17:1-22:12
MERGED from [androidx.drawerlayout:drawerlayout:1.0.0] /Users/macbookm1pro/.gradle/caches/transforms-2/files-2.1/c99af001058cd5265376dded8456f828/drawerlayout-1.0.0/AndroidManifest.xml:17:1-22:12
MERGED from [androidx.slidingpanelayout:slidingpanelayout:1.0.0] /Users/macbookm1pro/.gradle/caches/transforms-2/files-2.1/f53bca436baf2a2670073f8750b0b7d5/slidingpanelayout-1.0.0/AndroidManifest.xml:17:1-22:12
MERGED from [androidx.customview:customview:1.0.0] /Users/macbookm1pro/.gradle/caches/transforms-2/files-2.1/e0a79d4379c4eef3803202a497c19313/customview-1.0.0/AndroidManifest.xml:17:1-22:12
MERGED from [androidx.asynclayoutinflater:asynclayoutinflater:1.0.0] /Users/macbookm1pro/.gradle/caches/transforms-2/files-2.1/8dc6c78d6d7c962ba02416981491cd60/asynclayoutinflater-1.0.0/AndroidManifest.xml:17:1-22:12
MERGED from [androidx.core:core:1.3.1] /Users/macbookm1pro/.gradle/caches/transforms-2/files-2.1/4f3e3536c8bf9e8cb1939d2a5eeaba3a/core-1.3.1/AndroidManifest.xml:17:1-26:12
MERGED from [androidx.exifinterface:exifinterface:1.3.3] /Users/macbookm1pro/.gradle/caches/transforms-2/files-2.1/000ecd2f1af685ac496fabbb2c7ee2dd/exifinterface-1.3.3/AndroidManifest.xml:17:1-24:12
MERGED from [androidx.versionedparcelable:versionedparcelable:1.1.0] /Users/macbookm1pro/.gradle/caches/transforms-2/files-2.1/2786c84c1e653e40bd67508414ca298f/versionedparcelable-1.1.0/AndroidManifest.xml:17:1-27:12
MERGED from [androidx.cursoradapter:cursoradapter:1.0.0] /Users/macbookm1pro/.gradle/caches/transforms-2/files-2.1/3b41f2ef3d4a30256bbd9d1017371108/cursoradapter-1.0.0/AndroidManifest.xml:17:1-22:12
MERGED from [androidx.lifecycle:lifecycle-runtime:2.0.0] /Users/macbookm1pro/.gradle/caches/transforms-2/files-2.1/ac14d7df066dfe6771a99d6618f8972b/lifecycle-runtime-2.0.0/AndroidManifest.xml:17:1-22:12
MERGED from [androidx.documentfile:documentfile:1.0.0] /Users/macbookm1pro/.gradle/caches/transforms-2/files-2.1/d78ae12d9aa12e93077461f94a53335b/documentfile-1.0.0/AndroidManifest.xml:17:1-22:12
MERGED from [androidx.localbroadcastmanager:localbroadcastmanager:1.0.0] /Users/macbookm1pro/.gradle/caches/transforms-2/files-2.1/3d5c1e204ac62dc0f6d5059f5e3eaa42/localbroadcastmanager-1.0.0/AndroidManifest.xml:17:1-22:12
MERGED from [androidx.print:print:1.0.0] /Users/macbookm1pro/.gradle/caches/transforms-2/files-2.1/37c50c3790fd1f696b8c9e7a44956408/print-1.0.0/AndroidManifest.xml:17:1-22:12
MERGED from [androidx.lifecycle:lifecycle-viewmodel:2.0.0] /Users/macbookm1pro/.gradle/caches/transforms-2/files-2.1/e4da8d8862d6678c3560ec00b4835d61/lifecycle-viewmodel-2.0.0/AndroidManifest.xml:17:1-22:12
MERGED from [androidx.lifecycle:lifecycle-livedata:2.0.0] /Users/macbookm1pro/.gradle/caches/transforms-2/files-2.1/4da6ddd3c71dbaec92b0fdf3bbca4ce7/lifecycle-livedata-2.0.0/AndroidManifest.xml:17:1-22:12
MERGED from [androidx.lifecycle:lifecycle-livedata-core:2.0.0] /Users/macbookm1pro/.gradle/caches/transforms-2/files-2.1/7795d60208f5dec52ee32d30407c8252/lifecycle-livedata-core-2.0.0/AndroidManifest.xml:17:1-22:12
MERGED from [androidx.arch.core:core-runtime:2.0.0] /Users/macbookm1pro/.gradle/caches/transforms-2/files-2.1/9c44c714e7f61700ba86ba0b726bac90/core-runtime-2.0.0/AndroidManifest.xml:17:1-22:12
MERGED from [com.facebook.fresco:fbcore:2.0.0] /Users/macbookm1pro/.gradle/caches/transforms-2/files-2.1/cb825d0ec216cf5c333fcc585a9a2710/jetified-fbcore-2.0.0/AndroidManifest.xml:2:1-9:12
INJECTED from /Users/macbookm1pro/Freelance/e-absensikasn/android/app/src/main/AndroidManifest.xml:1:1-32:12
INJECTED from /Users/macbookm1pro/Freelance/e-absensikasn/android/app/src/main/AndroidManifest.xml:1:1-32:12
INJECTED from /Users/macbookm1pro/Freelance/e-absensikasn/android/app/src/main/AndroidManifest.xml:1:1-32:12
	package
		ADDED from /Users/macbookm1pro/Freelance/e-absensikasn/android/app/src/main/AndroidManifest.xml:2:3-39
		INJECTED from /Users/macbookm1pro/Freelance/e-absensikasn/android/app/src/main/AndroidManifest.xml
		INJECTED from /Users/macbookm1pro/Freelance/e-absensikasn/android/app/src/main/AndroidManifest.xml
	android:versionName
		INJECTED from /Users/macbookm1pro/Freelance/e-absensikasn/android/app/src/main/AndroidManifest.xml
		ADDED from /Users/macbookm1pro/Freelance/e-absensikasn/android/app/src/main/AndroidManifest.xml:1:1-32:12
		INJECTED from /Users/macbookm1pro/Freelance/e-absensikasn/android/app/src/main/AndroidManifest.xml
	android:versionCode
		INJECTED from /Users/macbookm1pro/Freelance/e-absensikasn/android/app/src/main/AndroidManifest.xml
		ADDED from /Users/macbookm1pro/Freelance/e-absensikasn/android/app/src/main/AndroidManifest.xml:1:1-32:12
		INJECTED from /Users/macbookm1pro/Freelance/e-absensikasn/android/app/src/main/AndroidManifest.xml
	xmlns:android
		ADDED from /Users/macbookm1pro/Freelance/e-absensikasn/android/app/src/main/AndroidManifest.xml:1:11-69
uses-permission#android.permission.INTERNET
ADDED from /Users/macbookm1pro/Freelance/e-absensikasn/android/app/src/main/AndroidManifest.xml:4:5-67
MERGED from [:react-native-code-push] /Users/macbookm1pro/Freelance/e-absensikasn/node_modules/react-native-code-push/android/app/build/intermediates/library_manifest/release/AndroidManifest.xml:11:5-67
MERGED from [:react-native-code-push] /Users/macbookm1pro/Freelance/e-absensikasn/node_modules/react-native-code-push/android/app/build/intermediates/library_manifest/release/AndroidManifest.xml:11:5-67
MERGED from [:rn-fetch-blob] /Users/macbookm1pro/Freelance/e-absensikasn/node_modules/rn-fetch-blob/android/build/intermediates/library_manifest/release/AndroidManifest.xml:15:5-67
MERGED from [:rn-fetch-blob] /Users/macbookm1pro/Freelance/e-absensikasn/node_modules/rn-fetch-blob/android/build/intermediates/library_manifest/release/AndroidManifest.xml:15:5-67
	android:name
		ADDED from /Users/macbookm1pro/Freelance/e-absensikasn/android/app/src/main/AndroidManifest.xml:4:22-64
uses-permission#android.permission.ACCESS_FINE_LOCATION
ADDED from /Users/macbookm1pro/Freelance/e-absensikasn/android/app/src/main/AndroidManifest.xml:5:5-79
	android:name
		ADDED from /Users/macbookm1pro/Freelance/e-absensikasn/android/app/src/main/AndroidManifest.xml:5:22-76
uses-permission#android.permission.CAMERA
ADDED from /Users/macbookm1pro/Freelance/e-absensikasn/android/app/src/main/AndroidManifest.xml:6:5-65
	android:name
		ADDED from /Users/macbookm1pro/Freelance/e-absensikasn/android/app/src/main/AndroidManifest.xml:6:22-62
uses-permission#android.permission.WRITE_EXTERNAL_STORAGE
ADDED from /Users/macbookm1pro/Freelance/e-absensikasn/android/app/src/main/AndroidManifest.xml:7:5-80
MERGED from [:rn-fetch-blob] /Users/macbookm1pro/Freelance/e-absensikasn/node_modules/rn-fetch-blob/android/build/intermediates/library_manifest/release/AndroidManifest.xml:33:5-81
MERGED from [:rn-fetch-blob] /Users/macbookm1pro/Freelance/e-absensikasn/node_modules/rn-fetch-blob/android/build/intermediates/library_manifest/release/AndroidManifest.xml:33:5-81
	android:name
		ADDED from /Users/macbookm1pro/Freelance/e-absensikasn/android/app/src/main/AndroidManifest.xml:7:22-78
application
ADDED from /Users/macbookm1pro/Freelance/e-absensikasn/android/app/src/main/AndroidManifest.xml:9:5-30:19
MERGED from [:react-native-code-push] /Users/macbookm1pro/Freelance/e-absensikasn/node_modules/react-native-code-push/android/app/build/intermediates/library_manifest/release/AndroidManifest.xml:13:5-15:19
MERGED from [:react-native-code-push] /Users/macbookm1pro/Freelance/e-absensikasn/node_modules/react-native-code-push/android/app/build/intermediates/library_manifest/release/AndroidManifest.xml:13:5-15:19
MERGED from [:react-native-image-picker] /Users/macbookm1pro/Freelance/e-absensikasn/node_modules/react-native-image-picker/android/build/intermediates/library_manifest/release/AndroidManifest.xml:11:5-21:19
MERGED from [:react-native-image-picker] /Users/macbookm1pro/Freelance/e-absensikasn/node_modules/react-native-image-picker/android/build/intermediates/library_manifest/release/AndroidManifest.xml:11:5-21:19
MERGED from [:rn-fetch-blob] /Users/macbookm1pro/Freelance/e-absensikasn/node_modules/rn-fetch-blob/android/build/intermediates/library_manifest/release/AndroidManifest.xml:35:5-45:19
MERGED from [:rn-fetch-blob] /Users/macbookm1pro/Freelance/e-absensikasn/node_modules/rn-fetch-blob/android/build/intermediates/library_manifest/release/AndroidManifest.xml:35:5-45:19
MERGED from [com.facebook.react:react-native:0.63.5] /Users/macbookm1pro/.gradle/caches/transforms-2/files-2.1/52346456014ea6b26359dc62b92dc3be/jetified-react-native-0.63.5/AndroidManifest.xml:11:5-20
MERGED from [com.facebook.react:react-native:0.63.5] /Users/macbookm1pro/.gradle/caches/transforms-2/files-2.1/52346456014ea6b26359dc62b92dc3be/jetified-react-native-0.63.5/AndroidManifest.xml:11:5-20
MERGED from [com.google.android.gms:play-services-location:17.0.0] /Users/macbookm1pro/.gradle/caches/transforms-2/files-2.1/cfe184b2b3fc6f019a80d581fc6f7447/play-services-location-17.0.0/AndroidManifest.xml:7:5-20
MERGED from [com.google.android.gms:play-services-location:17.0.0] /Users/macbookm1pro/.gradle/caches/transforms-2/files-2.1/cfe184b2b3fc6f019a80d581fc6f7447/play-services-location-17.0.0/AndroidManifest.xml:7:5-20
MERGED from [com.google.android.gms:play-services-base:17.0.0] /Users/macbookm1pro/.gradle/caches/transforms-2/files-2.1/fc8046cb9a5df9499609a5f7f8270b1b/play-services-base-17.0.0/AndroidManifest.xml:22:5-27:19
MERGED from [com.google.android.gms:play-services-base:17.0.0] /Users/macbookm1pro/.gradle/caches/transforms-2/files-2.1/fc8046cb9a5df9499609a5f7f8270b1b/play-services-base-17.0.0/AndroidManifest.xml:22:5-27:19
MERGED from [com.google.android.gms:play-services-places-placereport:17.0.0] /Users/macbookm1pro/.gradle/caches/transforms-2/files-2.1/7aa1097eb47596f6fc594d09cb57b709/play-services-places-placereport-17.0.0/AndroidManifest.xml:22:5-20
MERGED from [com.google.android.gms:play-services-places-placereport:17.0.0] /Users/macbookm1pro/.gradle/caches/transforms-2/files-2.1/7aa1097eb47596f6fc594d09cb57b709/play-services-places-placereport-17.0.0/AndroidManifest.xml:22:5-20
MERGED from [com.google.android.gms:play-services-tasks:17.0.0] /Users/macbookm1pro/.gradle/caches/transforms-2/files-2.1/a5841d1417e823e700e7ed3e71829aa8/play-services-tasks-17.0.0/AndroidManifest.xml:7:5-20
MERGED from [com.google.android.gms:play-services-tasks:17.0.0] /Users/macbookm1pro/.gradle/caches/transforms-2/files-2.1/a5841d1417e823e700e7ed3e71829aa8/play-services-tasks-17.0.0/AndroidManifest.xml:7:5-20
MERGED from [com.google.android.gms:play-services-basement:17.0.0] /Users/macbookm1pro/.gradle/caches/transforms-2/files-2.1/76f078f561b222e800a21b70aa1a106b/jetified-play-services-basement-17.0.0/AndroidManifest.xml:22:5-26:19
MERGED from [com.google.android.gms:play-services-basement:17.0.0] /Users/macbookm1pro/.gradle/caches/transforms-2/files-2.1/76f078f561b222e800a21b70aa1a106b/jetified-play-services-basement-17.0.0/AndroidManifest.xml:22:5-26:19
MERGED from [com.facebook.soloader:soloader:0.9.0] /Users/macbookm1pro/.gradle/caches/transforms-2/files-2.1/c34148f30cbc3e974eff21cbfb6a112a/soloader-0.9.0/AndroidManifest.xml:11:5-20
MERGED from [com.facebook.soloader:soloader:0.9.0] /Users/macbookm1pro/.gradle/caches/transforms-2/files-2.1/c34148f30cbc3e974eff21cbfb6a112a/soloader-0.9.0/AndroidManifest.xml:11:5-20
MERGED from [androidx.core:core:1.3.1] /Users/macbookm1pro/.gradle/caches/transforms-2/files-2.1/4f3e3536c8bf9e8cb1939d2a5eeaba3a/core-1.3.1/AndroidManifest.xml:24:5-89
MERGED from [androidx.core:core:1.3.1] /Users/macbookm1pro/.gradle/caches/transforms-2/files-2.1/4f3e3536c8bf9e8cb1939d2a5eeaba3a/core-1.3.1/AndroidManifest.xml:24:5-89
MERGED from [androidx.versionedparcelable:versionedparcelable:1.1.0] /Users/macbookm1pro/.gradle/caches/transforms-2/files-2.1/2786c84c1e653e40bd67508414ca298f/versionedparcelable-1.1.0/AndroidManifest.xml:24:5-25:19
MERGED from [androidx.versionedparcelable:versionedparcelable:1.1.0] /Users/macbookm1pro/.gradle/caches/transforms-2/files-2.1/2786c84c1e653e40bd67508414ca298f/versionedparcelable-1.1.0/AndroidManifest.xml:24:5-25:19
	android:requestLegacyExternalStorage
		ADDED from /Users/macbookm1pro/Freelance/e-absensikasn/android/app/src/main/AndroidManifest.xml:16:7-50
	android:appComponentFactory
		ADDED from [androidx.core:core:1.3.1] /Users/macbookm1pro/.gradle/caches/transforms-2/files-2.1/4f3e3536c8bf9e8cb1939d2a5eeaba3a/core-1.3.1/AndroidManifest.xml:24:18-86
	android:label
		ADDED from /Users/macbookm1pro/Freelance/e-absensikasn/android/app/src/main/AndroidManifest.xml:11:7-39
	android:roundIcon
		ADDED from /Users/macbookm1pro/Freelance/e-absensikasn/android/app/src/main/AndroidManifest.xml:13:7-46
	android:icon
		ADDED from /Users/macbookm1pro/Freelance/e-absensikasn/android/app/src/main/AndroidManifest.xml:12:7-41
	android:allowBackup
		ADDED from /Users/macbookm1pro/Freelance/e-absensikasn/android/app/src/main/AndroidManifest.xml:14:7-34
	android:theme
		ADDED from /Users/macbookm1pro/Freelance/e-absensikasn/android/app/src/main/AndroidManifest.xml:17:7-38
	android:usesCleartextTraffic
		ADDED from /Users/macbookm1pro/Freelance/e-absensikasn/android/app/src/main/AndroidManifest.xml:15:7-42
	android:name
		ADDED from /Users/macbookm1pro/Freelance/e-absensikasn/android/app/src/main/AndroidManifest.xml:10:7-38
activity#id.co.insite.eabsensi.kasn.MainActivity
ADDED from /Users/macbookm1pro/Freelance/e-absensikasn/android/app/src/main/AndroidManifest.xml:18:7-28:18
	android:label
		ADDED from /Users/macbookm1pro/Freelance/e-absensikasn/android/app/src/main/AndroidManifest.xml:20:9-41
	android:launchMode
		ADDED from /Users/macbookm1pro/Freelance/e-absensikasn/android/app/src/main/AndroidManifest.xml:22:9-40
	android:windowSoftInputMode
		ADDED from /Users/macbookm1pro/Freelance/e-absensikasn/android/app/src/main/AndroidManifest.xml:23:9-51
	android:configChanges
		ADDED from /Users/macbookm1pro/Freelance/e-absensikasn/android/app/src/main/AndroidManifest.xml:21:9-86
	android:name
		ADDED from /Users/macbookm1pro/Freelance/e-absensikasn/android/app/src/main/AndroidManifest.xml:19:9-37
intent-filter#action:name:android.intent.action.MAIN+category:name:android.intent.category.LAUNCHER
ADDED from /Users/macbookm1pro/Freelance/e-absensikasn/android/app/src/main/AndroidManifest.xml:24:9-27:25
action#android.intent.action.MAIN
ADDED from /Users/macbookm1pro/Freelance/e-absensikasn/android/app/src/main/AndroidManifest.xml:25:13-65
	android:name
		ADDED from /Users/macbookm1pro/Freelance/e-absensikasn/android/app/src/main/AndroidManifest.xml:25:21-62
category#android.intent.category.LAUNCHER
ADDED from /Users/macbookm1pro/Freelance/e-absensikasn/android/app/src/main/AndroidManifest.xml:26:13-73
	android:name
		ADDED from /Users/macbookm1pro/Freelance/e-absensikasn/android/app/src/main/AndroidManifest.xml:26:23-70
activity#com.facebook.react.devsupport.DevSettingsActivity
ADDED from /Users/macbookm1pro/Freelance/e-absensikasn/android/app/src/main/AndroidManifest.xml:29:7-84
MERGED from [:react-native-code-push] /Users/macbookm1pro/Freelance/e-absensikasn/node_modules/react-native-code-push/android/app/build/intermediates/library_manifest/release/AndroidManifest.xml:14:9-86
MERGED from [:react-native-code-push] /Users/macbookm1pro/Freelance/e-absensikasn/node_modules/react-native-code-push/android/app/build/intermediates/library_manifest/release/AndroidManifest.xml:14:9-86
	android:name
		ADDED from /Users/macbookm1pro/Freelance/e-absensikasn/android/app/src/main/AndroidManifest.xml:29:17-81
uses-sdk
INJECTED from /Users/macbookm1pro/Freelance/e-absensikasn/android/app/src/main/AndroidManifest.xml reason: use-sdk injection requested
INJECTED from /Users/macbookm1pro/Freelance/e-absensikasn/android/app/src/main/AndroidManifest.xml
INJECTED from /Users/macbookm1pro/Freelance/e-absensikasn/android/app/src/main/AndroidManifest.xml
MERGED from [:react-native-community_async-storage] /Users/macbookm1pro/Freelance/e-absensikasn/node_modules/@react-native-community/async-storage/android/build/intermediates/library_manifest/release/AndroidManifest.xml:5:5-7:41
MERGED from [:react-native-community_async-storage] /Users/macbookm1pro/Freelance/e-absensikasn/node_modules/@react-native-community/async-storage/android/build/intermediates/library_manifest/release/AndroidManifest.xml:5:5-7:41
MERGED from [:react-native-community_geolocation] /Users/macbookm1pro/Freelance/e-absensikasn/node_modules/@react-native-community/geolocation/android/build/intermediates/library_manifest/release/AndroidManifest.xml:5:5-7:41
MERGED from [:react-native-community_geolocation] /Users/macbookm1pro/Freelance/e-absensikasn/node_modules/@react-native-community/geolocation/android/build/intermediates/library_manifest/release/AndroidManifest.xml:5:5-7:41
MERGED from [:react-native-community_toolbar-android] /Users/macbookm1pro/Freelance/e-absensikasn/node_modules/@react-native-community/toolbar-android/android/build/intermediates/library_manifest/release/AndroidManifest.xml:7:5-9:41
MERGED from [:react-native-community_toolbar-android] /Users/macbookm1pro/Freelance/e-absensikasn/node_modules/@react-native-community/toolbar-android/android/build/intermediates/library_manifest/release/AndroidManifest.xml:7:5-9:41
MERGED from [:react-native-android-location-enabler] /Users/macbookm1pro/Freelance/e-absensikasn/node_modules/react-native-android-location-enabler/android/build/intermediates/library_manifest/release/AndroidManifest.xml:7:5-9:41
MERGED from [:react-native-android-location-enabler] /Users/macbookm1pro/Freelance/e-absensikasn/node_modules/react-native-android-location-enabler/android/build/intermediates/library_manifest/release/AndroidManifest.xml:7:5-9:41
MERGED from [:react-native-cardview] /Users/macbookm1pro/Freelance/e-absensikasn/node_modules/react-native-cardview/android/build/intermediates/library_manifest/release/AndroidManifest.xml:7:5-9:41
MERGED from [:react-native-cardview] /Users/macbookm1pro/Freelance/e-absensikasn/node_modules/react-native-cardview/android/build/intermediates/library_manifest/release/AndroidManifest.xml:7:5-9:41
MERGED from [:react-native-code-push] /Users/macbookm1pro/Freelance/e-absensikasn/node_modules/react-native-code-push/android/app/build/intermediates/library_manifest/release/AndroidManifest.xml:7:5-9:41
MERGED from [:react-native-code-push] /Users/macbookm1pro/Freelance/e-absensikasn/node_modules/react-native-code-push/android/app/build/intermediates/library_manifest/release/AndroidManifest.xml:7:5-9:41
MERGED from [:react-native-gesture-handler] /Users/macbookm1pro/Freelance/e-absensikasn/node_modules/react-native-gesture-handler/android/build/intermediates/library_manifest/release/AndroidManifest.xml:7:5-9:41
MERGED from [:react-native-gesture-handler] /Users/macbookm1pro/Freelance/e-absensikasn/node_modules/react-native-gesture-handler/android/build/intermediates/library_manifest/release/AndroidManifest.xml:7:5-9:41
MERGED from [:react-native-image-picker] /Users/macbookm1pro/Freelance/e-absensikasn/node_modules/react-native-image-picker/android/build/intermediates/library_manifest/release/AndroidManifest.xml:7:5-9:41
MERGED from [:react-native-image-picker] /Users/macbookm1pro/Freelance/e-absensikasn/node_modules/react-native-image-picker/android/build/intermediates/library_manifest/release/AndroidManifest.xml:7:5-9:41
MERGED from [:react-native-reanimated] /Users/macbookm1pro/Freelance/e-absensikasn/node_modules/react-native-reanimated/android/build/intermediates/library_manifest/release/AndroidManifest.xml:7:5-9:41
MERGED from [:react-native-reanimated] /Users/macbookm1pro/Freelance/e-absensikasn/node_modules/react-native-reanimated/android/build/intermediates/library_manifest/release/AndroidManifest.xml:7:5-9:41
MERGED from [:react-native-vector-icons] /Users/macbookm1pro/Freelance/e-absensikasn/node_modules/react-native-vector-icons/android/build/intermediates/library_manifest/release/AndroidManifest.xml:7:5-9:41
MERGED from [:react-native-vector-icons] /Users/macbookm1pro/Freelance/e-absensikasn/node_modules/react-native-vector-icons/android/build/intermediates/library_manifest/release/AndroidManifest.xml:7:5-9:41
MERGED from [:rn-fetch-blob] /Users/macbookm1pro/Freelance/e-absensikasn/node_modules/rn-fetch-blob/android/build/intermediates/library_manifest/release/AndroidManifest.xml:7:5-9:41
MERGED from [:rn-fetch-blob] /Users/macbookm1pro/Freelance/e-absensikasn/node_modules/rn-fetch-blob/android/build/intermediates/library_manifest/release/AndroidManifest.xml:7:5-9:41
MERGED from [com.facebook.react:react-native:0.63.5] /Users/macbookm1pro/.gradle/caches/transforms-2/files-2.1/52346456014ea6b26359dc62b92dc3be/jetified-react-native-0.63.5/AndroidManifest.xml:7:5-9:41
MERGED from [com.facebook.react:react-native:0.63.5] /Users/macbookm1pro/.gradle/caches/transforms-2/files-2.1/52346456014ea6b26359dc62b92dc3be/jetified-react-native-0.63.5/AndroidManifest.xml:7:5-9:41
MERGED from [androidx.appcompat:appcompat:1.0.2] /Users/macbookm1pro/.gradle/caches/transforms-2/files-2.1/37631cd0ab1b46aeb23414622984ad25/appcompat-1.0.2/AndroidManifest.xml:20:5-44
MERGED from [androidx.appcompat:appcompat:1.0.2] /Users/macbookm1pro/.gradle/caches/transforms-2/files-2.1/37631cd0ab1b46aeb23414622984ad25/appcompat-1.0.2/AndroidManifest.xml:20:5-44
MERGED from [com.google.android.gms:play-services-location:17.0.0] /Users/macbookm1pro/.gradle/caches/transforms-2/files-2.1/cfe184b2b3fc6f019a80d581fc6f7447/play-services-location-17.0.0/AndroidManifest.xml:5:5-44
MERGED from [com.google.android.gms:play-services-location:17.0.0] /Users/macbookm1pro/.gradle/caches/transforms-2/files-2.1/cfe184b2b3fc6f019a80d581fc6f7447/play-services-location-17.0.0/AndroidManifest.xml:5:5-44
MERGED from [com.google.android.gms:play-services-base:17.0.0] /Users/macbookm1pro/.gradle/caches/transforms-2/files-2.1/fc8046cb9a5df9499609a5f7f8270b1b/play-services-base-17.0.0/AndroidManifest.xml:20:5-44
MERGED from [com.google.android.gms:play-services-base:17.0.0] /Users/macbookm1pro/.gradle/caches/transforms-2/files-2.1/fc8046cb9a5df9499609a5f7f8270b1b/play-services-base-17.0.0/AndroidManifest.xml:20:5-44
MERGED from [com.google.android.gms:play-services-places-placereport:17.0.0] /Users/macbookm1pro/.gradle/caches/transforms-2/files-2.1/7aa1097eb47596f6fc594d09cb57b709/play-services-places-placereport-17.0.0/AndroidManifest.xml:20:5-44
MERGED from [com.google.android.gms:play-services-places-placereport:17.0.0] /Users/macbookm1pro/.gradle/caches/transforms-2/files-2.1/7aa1097eb47596f6fc594d09cb57b709/play-services-places-placereport-17.0.0/AndroidManifest.xml:20:5-44
MERGED from [com.google.android.gms:play-services-tasks:17.0.0] /Users/macbookm1pro/.gradle/caches/transforms-2/files-2.1/a5841d1417e823e700e7ed3e71829aa8/play-services-tasks-17.0.0/AndroidManifest.xml:5:5-44
MERGED from [com.google.android.gms:play-services-tasks:17.0.0] /Users/macbookm1pro/.gradle/caches/transforms-2/files-2.1/a5841d1417e823e700e7ed3e71829aa8/play-services-tasks-17.0.0/AndroidManifest.xml:5:5-44
MERGED from [com.google.android.gms:play-services-basement:17.0.0] /Users/macbookm1pro/.gradle/caches/transforms-2/files-2.1/76f078f561b222e800a21b70aa1a106b/jetified-play-services-basement-17.0.0/AndroidManifest.xml:20:5-44
MERGED from [com.google.android.gms:play-services-basement:17.0.0] /Users/macbookm1pro/.gradle/caches/transforms-2/files-2.1/76f078f561b222e800a21b70aa1a106b/jetified-play-services-basement-17.0.0/AndroidManifest.xml:20:5-44
MERGED from [androidx.fragment:fragment:1.0.0] /Users/macbookm1pro/.gradle/caches/transforms-2/files-2.1/b728cfa27a34e7e631f60a7098e3dda9/fragment-1.0.0/AndroidManifest.xml:20:5-44
MERGED from [androidx.fragment:fragment:1.0.0] /Users/macbookm1pro/.gradle/caches/transforms-2/files-2.1/b728cfa27a34e7e631f60a7098e3dda9/fragment-1.0.0/AndroidManifest.xml:20:5-44
MERGED from [androidx.vectordrawable:vectordrawable-animated:1.0.0] /Users/macbookm1pro/.gradle/caches/transforms-2/files-2.1/a82e5d5eb6a0ae6bbe9bb4670cb6bef6/vectordrawable-animated-1.0.0/AndroidManifest.xml:20:5-44
MERGED from [androidx.vectordrawable:vectordrawable-animated:1.0.0] /Users/macbookm1pro/.gradle/caches/transforms-2/files-2.1/a82e5d5eb6a0ae6bbe9bb4670cb6bef6/vectordrawable-animated-1.0.0/AndroidManifest.xml:20:5-44
MERGED from [androidx.legacy:legacy-support-core-ui:1.0.0] /Users/macbookm1pro/.gradle/caches/transforms-2/files-2.1/c4a0854b2c4c976f5fd7b439b5911773/legacy-support-core-ui-1.0.0/AndroidManifest.xml:20:5-44
MERGED from [androidx.legacy:legacy-support-core-ui:1.0.0] /Users/macbookm1pro/.gradle/caches/transforms-2/files-2.1/c4a0854b2c4c976f5fd7b439b5911773/legacy-support-core-ui-1.0.0/AndroidManifest.xml:20:5-44
MERGED from [androidx.swiperefreshlayout:swiperefreshlayout:1.0.0] /Users/macbookm1pro/.gradle/caches/transforms-2/files-2.1/37b6f551bc5ae153b0b627de8f563815/swiperefreshlayout-1.0.0/AndroidManifest.xml:20:5-44
MERGED from [androidx.swiperefreshlayout:swiperefreshlayout:1.0.0] /Users/macbookm1pro/.gradle/caches/transforms-2/files-2.1/37b6f551bc5ae153b0b627de8f563815/swiperefreshlayout-1.0.0/AndroidManifest.xml:20:5-44
MERGED from [org.webkit:android-jsc:r245459] /Users/macbookm1pro/.gradle/caches/transforms-2/files-2.1/6dd6245206e34676e1ee3aa6ee0f68c9/android-jsc-r245459/AndroidManifest.xml:7:5-9:41
MERGED from [org.webkit:android-jsc:r245459] /Users/macbookm1pro/.gradle/caches/transforms-2/files-2.1/6dd6245206e34676e1ee3aa6ee0f68c9/android-jsc-r245459/AndroidManifest.xml:7:5-9:41
MERGED from [com.facebook.fresco:fresco:2.0.0] /Users/macbookm1pro/.gradle/caches/transforms-2/files-2.1/454c96154d0a2efb5f34ced0245cf76d/fresco-2.0.0/AndroidManifest.xml:5:5-7:41
MERGED from [com.facebook.fresco:fresco:2.0.0] /Users/macbookm1pro/.gradle/caches/transforms-2/files-2.1/454c96154d0a2efb5f34ced0245cf76d/fresco-2.0.0/AndroidManifest.xml:5:5-7:41
MERGED from [com.facebook.fresco:imagepipeline-okhttp3:2.0.0] /Users/macbookm1pro/.gradle/caches/transforms-2/files-2.1/559ddc4b7f576fedc63e05921b88e895/imagepipeline-okhttp3-2.0.0/AndroidManifest.xml:5:5-7:41
MERGED from [com.facebook.fresco:imagepipeline-okhttp3:2.0.0] /Users/macbookm1pro/.gradle/caches/transforms-2/files-2.1/559ddc4b7f576fedc63e05921b88e895/imagepipeline-okhttp3-2.0.0/AndroidManifest.xml:5:5-7:41
MERGED from [com.facebook.fresco:drawee:2.0.0] /Users/macbookm1pro/.gradle/caches/transforms-2/files-2.1/6c8969c989a883c90728abf2f80f32fb/drawee-2.0.0/AndroidManifest.xml:5:5-7:41
MERGED from [com.facebook.fresco:drawee:2.0.0] /Users/macbookm1pro/.gradle/caches/transforms-2/files-2.1/6c8969c989a883c90728abf2f80f32fb/drawee-2.0.0/AndroidManifest.xml:5:5-7:41
MERGED from [com.facebook.fresco:nativeimagefilters:2.0.0] /Users/macbookm1pro/.gradle/caches/transforms-2/files-2.1/5a2410130ba40b82b4f9bed40d7f483e/nativeimagefilters-2.0.0/AndroidManifest.xml:5:5-7:41
MERGED from [com.facebook.fresco:nativeimagefilters:2.0.0] /Users/macbookm1pro/.gradle/caches/transforms-2/files-2.1/5a2410130ba40b82b4f9bed40d7f483e/nativeimagefilters-2.0.0/AndroidManifest.xml:5:5-7:41
MERGED from [com.facebook.fresco:imagepipeline:2.0.0] /Users/macbookm1pro/.gradle/caches/transforms-2/files-2.1/13dda75bcf2643fb917d5dc46398410e/imagepipeline-2.0.0/AndroidManifest.xml:5:5-7:41
MERGED from [com.facebook.fresco:imagepipeline:2.0.0] /Users/macbookm1pro/.gradle/caches/transforms-2/files-2.1/13dda75bcf2643fb917d5dc46398410e/imagepipeline-2.0.0/AndroidManifest.xml:5:5-7:41
MERGED from [com.facebook.fresco:nativeimagetranscoder:2.0.0] /Users/macbookm1pro/.gradle/caches/transforms-2/files-2.1/c416dd8728d3ebccaf2e74e1e1aab223/nativeimagetranscoder-2.0.0/AndroidManifest.xml:5:5-7:41
MERGED from [com.facebook.fresco:nativeimagetranscoder:2.0.0] /Users/macbookm1pro/.gradle/caches/transforms-2/files-2.1/c416dd8728d3ebccaf2e74e1e1aab223/nativeimagetranscoder-2.0.0/AndroidManifest.xml:5:5-7:41
MERGED from [com.facebook.fresco:imagepipeline-base:2.0.0] /Users/macbookm1pro/.gradle/caches/transforms-2/files-2.1/95ee73f6c014e94cc84e3a19f64125f8/imagepipeline-base-2.0.0/AndroidManifest.xml:5:5-7:41
MERGED from [com.facebook.fresco:imagepipeline-base:2.0.0] /Users/macbookm1pro/.gradle/caches/transforms-2/files-2.1/95ee73f6c014e94cc84e3a19f64125f8/imagepipeline-base-2.0.0/AndroidManifest.xml:5:5-7:41
MERGED from [com.facebook.soloader:soloader:0.9.0] /Users/macbookm1pro/.gradle/caches/transforms-2/files-2.1/c34148f30cbc3e974eff21cbfb6a112a/soloader-0.9.0/AndroidManifest.xml:7:5-9:41
MERGED from [com.facebook.soloader:soloader:0.9.0] /Users/macbookm1pro/.gradle/caches/transforms-2/files-2.1/c34148f30cbc3e974eff21cbfb6a112a/soloader-0.9.0/AndroidManifest.xml:7:5-9:41
MERGED from [androidx.interpolator:interpolator:1.0.0] /Users/macbookm1pro/.gradle/caches/transforms-2/files-2.1/efb592adf2592d134c27edc4a56e19d2/interpolator-1.0.0/AndroidManifest.xml:20:5-44
MERGED from [androidx.interpolator:interpolator:1.0.0] /Users/macbookm1pro/.gradle/caches/transforms-2/files-2.1/efb592adf2592d134c27edc4a56e19d2/interpolator-1.0.0/AndroidManifest.xml:20:5-44
MERGED from [androidx.cardview:cardview:1.0.0] /Users/macbookm1pro/.gradle/caches/transforms-2/files-2.1/7ce8a2eb9e81825ec9bcc373c597a746/cardview-1.0.0/AndroidManifest.xml:20:5-44
MERGED from [androidx.cardview:cardview:1.0.0] /Users/macbookm1pro/.gradle/caches/transforms-2/files-2.1/7ce8a2eb9e81825ec9bcc373c597a746/cardview-1.0.0/AndroidManifest.xml:20:5-44
MERGED from [androidx.transition:transition:1.1.0] /Users/macbookm1pro/.gradle/caches/transforms-2/files-2.1/0543f56f80f0ca8ae69e84c65fb92ce7/transition-1.1.0/AndroidManifest.xml:20:5-44
MERGED from [androidx.transition:transition:1.1.0] /Users/macbookm1pro/.gradle/caches/transforms-2/files-2.1/0543f56f80f0ca8ae69e84c65fb92ce7/transition-1.1.0/AndroidManifest.xml:20:5-44
MERGED from [androidx.legacy:legacy-support-core-utils:1.0.0] /Users/macbookm1pro/.gradle/caches/transforms-2/files-2.1/1b42f88dea3794bc67b44839b4ca1a7b/legacy-support-core-utils-1.0.0/AndroidManifest.xml:20:5-44
MERGED from [androidx.legacy:legacy-support-core-utils:1.0.0] /Users/macbookm1pro/.gradle/caches/transforms-2/files-2.1/1b42f88dea3794bc67b44839b4ca1a7b/legacy-support-core-utils-1.0.0/AndroidManifest.xml:20:5-44
MERGED from [androidx.vectordrawable:vectordrawable:1.0.1] /Users/macbookm1pro/.gradle/caches/transforms-2/files-2.1/c613ffd7e9899cda3aa79449c5d6a877/vectordrawable-1.0.1/AndroidManifest.xml:20:5-44
MERGED from [androidx.vectordrawable:vectordrawable:1.0.1] /Users/macbookm1pro/.gradle/caches/transforms-2/files-2.1/c613ffd7e9899cda3aa79449c5d6a877/vectordrawable-1.0.1/AndroidManifest.xml:20:5-44
MERGED from [androidx.loader:loader:1.0.0] /Users/macbookm1pro/.gradle/caches/transforms-2/files-2.1/faa15558a5d57e35e462c9e1f0248694/loader-1.0.0/AndroidManifest.xml:20:5-44
MERGED from [androidx.loader:loader:1.0.0] /Users/macbookm1pro/.gradle/caches/transforms-2/files-2.1/faa15558a5d57e35e462c9e1f0248694/loader-1.0.0/AndroidManifest.xml:20:5-44
MERGED from [androidx.viewpager:viewpager:1.0.0] /Users/macbookm1pro/.gradle/caches/transforms-2/files-2.1/40f1c5d439eea30faeaafe93e7bdf45f/viewpager-1.0.0/AndroidManifest.xml:20:5-44
MERGED from [androidx.viewpager:viewpager:1.0.0] /Users/macbookm1pro/.gradle/caches/transforms-2/files-2.1/40f1c5d439eea30faeaafe93e7bdf45f/viewpager-1.0.0/AndroidManifest.xml:20:5-44
MERGED from [androidx.coordinatorlayout:coordinatorlayout:1.0.0] /Users/macbookm1pro/.gradle/caches/transforms-2/files-2.1/1289d5f505a72781714dc6082144c977/coordinatorlayout-1.0.0/AndroidManifest.xml:20:5-44
MERGED from [androidx.coordinatorlayout:coordinatorlayout:1.0.0] /Users/macbookm1pro/.gradle/caches/transforms-2/files-2.1/1289d5f505a72781714dc6082144c977/coordinatorlayout-1.0.0/AndroidManifest.xml:20:5-44
MERGED from [androidx.drawerlayout:drawerlayout:1.0.0] /Users/macbookm1pro/.gradle/caches/transforms-2/files-2.1/c99af001058cd5265376dded8456f828/drawerlayout-1.0.0/AndroidManifest.xml:20:5-44
MERGED from [androidx.drawerlayout:drawerlayout:1.0.0] /Users/macbookm1pro/.gradle/caches/transforms-2/files-2.1/c99af001058cd5265376dded8456f828/drawerlayout-1.0.0/AndroidManifest.xml:20:5-44
MERGED from [androidx.slidingpanelayout:slidingpanelayout:1.0.0] /Users/macbookm1pro/.gradle/caches/transforms-2/files-2.1/f53bca436baf2a2670073f8750b0b7d5/slidingpanelayout-1.0.0/AndroidManifest.xml:20:5-44
MERGED from [androidx.slidingpanelayout:slidingpanelayout:1.0.0] /Users/macbookm1pro/.gradle/caches/transforms-2/files-2.1/f53bca436baf2a2670073f8750b0b7d5/slidingpanelayout-1.0.0/AndroidManifest.xml:20:5-44
MERGED from [androidx.customview:customview:1.0.0] /Users/macbookm1pro/.gradle/caches/transforms-2/files-2.1/e0a79d4379c4eef3803202a497c19313/customview-1.0.0/AndroidManifest.xml:20:5-44
MERGED from [androidx.customview:customview:1.0.0] /Users/macbookm1pro/.gradle/caches/transforms-2/files-2.1/e0a79d4379c4eef3803202a497c19313/customview-1.0.0/AndroidManifest.xml:20:5-44
MERGED from [androidx.asynclayoutinflater:asynclayoutinflater:1.0.0] /Users/macbookm1pro/.gradle/caches/transforms-2/files-2.1/8dc6c78d6d7c962ba02416981491cd60/asynclayoutinflater-1.0.0/AndroidManifest.xml:20:5-44
MERGED from [androidx.asynclayoutinflater:asynclayoutinflater:1.0.0] /Users/macbookm1pro/.gradle/caches/transforms-2/files-2.1/8dc6c78d6d7c962ba02416981491cd60/asynclayoutinflater-1.0.0/AndroidManifest.xml:20:5-44
MERGED from [androidx.core:core:1.3.1] /Users/macbookm1pro/.gradle/caches/transforms-2/files-2.1/4f3e3536c8bf9e8cb1939d2a5eeaba3a/core-1.3.1/AndroidManifest.xml:20:5-22:41
MERGED from [androidx.core:core:1.3.1] /Users/macbookm1pro/.gradle/caches/transforms-2/files-2.1/4f3e3536c8bf9e8cb1939d2a5eeaba3a/core-1.3.1/AndroidManifest.xml:20:5-22:41
MERGED from [androidx.exifinterface:exifinterface:1.3.3] /Users/macbookm1pro/.gradle/caches/transforms-2/files-2.1/000ecd2f1af685ac496fabbb2c7ee2dd/exifinterface-1.3.3/AndroidManifest.xml:20:5-22:41
MERGED from [androidx.exifinterface:exifinterface:1.3.3] /Users/macbookm1pro/.gradle/caches/transforms-2/files-2.1/000ecd2f1af685ac496fabbb2c7ee2dd/exifinterface-1.3.3/AndroidManifest.xml:20:5-22:41
MERGED from [androidx.versionedparcelable:versionedparcelable:1.1.0] /Users/macbookm1pro/.gradle/caches/transforms-2/files-2.1/2786c84c1e653e40bd67508414ca298f/versionedparcelable-1.1.0/AndroidManifest.xml:20:5-22:41
MERGED from [androidx.versionedparcelable:versionedparcelable:1.1.0] /Users/macbookm1pro/.gradle/caches/transforms-2/files-2.1/2786c84c1e653e40bd67508414ca298f/versionedparcelable-1.1.0/AndroidManifest.xml:20:5-22:41
MERGED from [androidx.cursoradapter:cursoradapter:1.0.0] /Users/macbookm1pro/.gradle/caches/transforms-2/files-2.1/3b41f2ef3d4a30256bbd9d1017371108/cursoradapter-1.0.0/AndroidManifest.xml:20:5-44
MERGED from [androidx.cursoradapter:cursoradapter:1.0.0] /Users/macbookm1pro/.gradle/caches/transforms-2/files-2.1/3b41f2ef3d4a30256bbd9d1017371108/cursoradapter-1.0.0/AndroidManifest.xml:20:5-44
MERGED from [androidx.lifecycle:lifecycle-runtime:2.0.0] /Users/macbookm1pro/.gradle/caches/transforms-2/files-2.1/ac14d7df066dfe6771a99d6618f8972b/lifecycle-runtime-2.0.0/AndroidManifest.xml:20:5-44
MERGED from [androidx.lifecycle:lifecycle-runtime:2.0.0] /Users/macbookm1pro/.gradle/caches/transforms-2/files-2.1/ac14d7df066dfe6771a99d6618f8972b/lifecycle-runtime-2.0.0/AndroidManifest.xml:20:5-44
MERGED from [androidx.documentfile:documentfile:1.0.0] /Users/macbookm1pro/.gradle/caches/transforms-2/files-2.1/d78ae12d9aa12e93077461f94a53335b/documentfile-1.0.0/AndroidManifest.xml:20:5-44
MERGED from [androidx.documentfile:documentfile:1.0.0] /Users/macbookm1pro/.gradle/caches/transforms-2/files-2.1/d78ae12d9aa12e93077461f94a53335b/documentfile-1.0.0/AndroidManifest.xml:20:5-44
MERGED from [androidx.localbroadcastmanager:localbroadcastmanager:1.0.0] /Users/macbookm1pro/.gradle/caches/transforms-2/files-2.1/3d5c1e204ac62dc0f6d5059f5e3eaa42/localbroadcastmanager-1.0.0/AndroidManifest.xml:20:5-44
MERGED from [androidx.localbroadcastmanager:localbroadcastmanager:1.0.0] /Users/macbookm1pro/.gradle/caches/transforms-2/files-2.1/3d5c1e204ac62dc0f6d5059f5e3eaa42/localbroadcastmanager-1.0.0/AndroidManifest.xml:20:5-44
MERGED from [androidx.print:print:1.0.0] /Users/macbookm1pro/.gradle/caches/transforms-2/files-2.1/37c50c3790fd1f696b8c9e7a44956408/print-1.0.0/AndroidManifest.xml:20:5-44
MERGED from [androidx.print:print:1.0.0] /Users/macbookm1pro/.gradle/caches/transforms-2/files-2.1/37c50c3790fd1f696b8c9e7a44956408/print-1.0.0/AndroidManifest.xml:20:5-44
MERGED from [androidx.lifecycle:lifecycle-viewmodel:2.0.0] /Users/macbookm1pro/.gradle/caches/transforms-2/files-2.1/e4da8d8862d6678c3560ec00b4835d61/lifecycle-viewmodel-2.0.0/AndroidManifest.xml:20:5-44
MERGED from [androidx.lifecycle:lifecycle-viewmodel:2.0.0] /Users/macbookm1pro/.gradle/caches/transforms-2/files-2.1/e4da8d8862d6678c3560ec00b4835d61/lifecycle-viewmodel-2.0.0/AndroidManifest.xml:20:5-44
MERGED from [androidx.lifecycle:lifecycle-livedata:2.0.0] /Users/macbookm1pro/.gradle/caches/transforms-2/files-2.1/4da6ddd3c71dbaec92b0fdf3bbca4ce7/lifecycle-livedata-2.0.0/AndroidManifest.xml:20:5-44
MERGED from [androidx.lifecycle:lifecycle-livedata:2.0.0] /Users/macbookm1pro/.gradle/caches/transforms-2/files-2.1/4da6ddd3c71dbaec92b0fdf3bbca4ce7/lifecycle-livedata-2.0.0/AndroidManifest.xml:20:5-44
MERGED from [androidx.lifecycle:lifecycle-livedata-core:2.0.0] /Users/macbookm1pro/.gradle/caches/transforms-2/files-2.1/7795d60208f5dec52ee32d30407c8252/lifecycle-livedata-core-2.0.0/AndroidManifest.xml:20:5-44
MERGED from [androidx.lifecycle:lifecycle-livedata-core:2.0.0] /Users/macbookm1pro/.gradle/caches/transforms-2/files-2.1/7795d60208f5dec52ee32d30407c8252/lifecycle-livedata-core-2.0.0/AndroidManifest.xml:20:5-44
MERGED from [androidx.arch.core:core-runtime:2.0.0] /Users/macbookm1pro/.gradle/caches/transforms-2/files-2.1/9c44c714e7f61700ba86ba0b726bac90/core-runtime-2.0.0/AndroidManifest.xml:20:5-44
MERGED from [androidx.arch.core:core-runtime:2.0.0] /Users/macbookm1pro/.gradle/caches/transforms-2/files-2.1/9c44c714e7f61700ba86ba0b726bac90/core-runtime-2.0.0/AndroidManifest.xml:20:5-44
MERGED from [com.facebook.fresco:fbcore:2.0.0] /Users/macbookm1pro/.gradle/caches/transforms-2/files-2.1/cb825d0ec216cf5c333fcc585a9a2710/jetified-fbcore-2.0.0/AndroidManifest.xml:5:5-7:41
MERGED from [com.facebook.fresco:fbcore:2.0.0] /Users/macbookm1pro/.gradle/caches/transforms-2/files-2.1/cb825d0ec216cf5c333fcc585a9a2710/jetified-fbcore-2.0.0/AndroidManifest.xml:5:5-7:41
INJECTED from /Users/macbookm1pro/Freelance/e-absensikasn/android/app/src/main/AndroidManifest.xml
INJECTED from /Users/macbookm1pro/Freelance/e-absensikasn/android/app/src/main/AndroidManifest.xml
	android:targetSdkVersion
		INJECTED from /Users/macbookm1pro/Freelance/e-absensikasn/android/app/src/main/AndroidManifest.xml
		ADDED from /Users/macbookm1pro/Freelance/e-absensikasn/android/app/src/main/AndroidManifest.xml
		INJECTED from /Users/macbookm1pro/Freelance/e-absensikasn/android/app/src/main/AndroidManifest.xml
	android:minSdkVersion
		INJECTED from /Users/macbookm1pro/Freelance/e-absensikasn/android/app/src/main/AndroidManifest.xml
		ADDED from /Users/macbookm1pro/Freelance/e-absensikasn/android/app/src/main/AndroidManifest.xml
		INJECTED from /Users/macbookm1pro/Freelance/e-absensikasn/android/app/src/main/AndroidManifest.xml
provider#com.imagepicker.ImagePickerProvider
ADDED from [:react-native-image-picker] /Users/macbookm1pro/Freelance/e-absensikasn/node_modules/react-native-image-picker/android/build/intermediates/library_manifest/release/AndroidManifest.xml:12:9-20:20
	android:grantUriPermissions
		ADDED from [:react-native-image-picker] /Users/macbookm1pro/Freelance/e-absensikasn/node_modules/react-native-image-picker/android/build/intermediates/library_manifest/release/AndroidManifest.xml:16:13-47
	android:authorities
		ADDED from [:react-native-image-picker] /Users/macbookm1pro/Freelance/e-absensikasn/node_modules/react-native-image-picker/android/build/intermediates/library_manifest/release/AndroidManifest.xml:14:13-71
	android:exported
		ADDED from [:react-native-image-picker] /Users/macbookm1pro/Freelance/e-absensikasn/node_modules/react-native-image-picker/android/build/intermediates/library_manifest/release/AndroidManifest.xml:15:13-37
	android:name
		ADDED from [:react-native-image-picker] /Users/macbookm1pro/Freelance/e-absensikasn/node_modules/react-native-image-picker/android/build/intermediates/library_manifest/release/AndroidManifest.xml:13:13-63
meta-data#android.support.FILE_PROVIDER_PATHS
ADDED from [:react-native-image-picker] /Users/macbookm1pro/Freelance/e-absensikasn/node_modules/react-native-image-picker/android/build/intermediates/library_manifest/release/AndroidManifest.xml:17:13-19:70
	android:resource
		ADDED from [:react-native-image-picker] /Users/macbookm1pro/Freelance/e-absensikasn/node_modules/react-native-image-picker/android/build/intermediates/library_manifest/release/AndroidManifest.xml:19:17-67
	android:name
		ADDED from [:react-native-image-picker] /Users/macbookm1pro/Freelance/e-absensikasn/node_modules/react-native-image-picker/android/build/intermediates/library_manifest/release/AndroidManifest.xml:18:17-67
uses-permission#com.android.vending.CHECK_LICENSE
ADDED from [:rn-fetch-blob] /Users/macbookm1pro/Freelance/e-absensikasn/node_modules/rn-fetch-blob/android/build/intermediates/library_manifest/release/AndroidManifest.xml:12:5-73
	android:name
		ADDED from [:rn-fetch-blob] /Users/macbookm1pro/Freelance/e-absensikasn/node_modules/rn-fetch-blob/android/build/intermediates/library_manifest/release/AndroidManifest.xml:12:22-70
uses-permission#android.permission.WAKE_LOCK
ADDED from [:rn-fetch-blob] /Users/macbookm1pro/Freelance/e-absensikasn/node_modules/rn-fetch-blob/android/build/intermediates/library_manifest/release/AndroidManifest.xml:21:5-68
	android:name
		ADDED from [:rn-fetch-blob] /Users/macbookm1pro/Freelance/e-absensikasn/node_modules/rn-fetch-blob/android/build/intermediates/library_manifest/release/AndroidManifest.xml:21:22-65
uses-permission#android.permission.ACCESS_NETWORK_STATE
ADDED from [:rn-fetch-blob] /Users/macbookm1pro/Freelance/e-absensikasn/node_modules/rn-fetch-blob/android/build/intermediates/library_manifest/release/AndroidManifest.xml:27:5-79
	android:name
		ADDED from [:rn-fetch-blob] /Users/macbookm1pro/Freelance/e-absensikasn/node_modules/rn-fetch-blob/android/build/intermediates/library_manifest/release/AndroidManifest.xml:27:22-76
uses-permission#android.permission.ACCESS_WIFI_STATE
ADDED from [:rn-fetch-blob] /Users/macbookm1pro/Freelance/e-absensikasn/node_modules/rn-fetch-blob/android/build/intermediates/library_manifest/release/AndroidManifest.xml:30:5-76
	android:name
		ADDED from [:rn-fetch-blob] /Users/macbookm1pro/Freelance/e-absensikasn/node_modules/rn-fetch-blob/android/build/intermediates/library_manifest/release/AndroidManifest.xml:30:22-73
provider#com.RNFetchBlob.Utils.FileProvider
ADDED from [:rn-fetch-blob] /Users/macbookm1pro/Freelance/e-absensikasn/node_modules/rn-fetch-blob/android/build/intermediates/library_manifest/release/AndroidManifest.xml:36:9-44:20
	android:grantUriPermissions
		ADDED from [:rn-fetch-blob] /Users/macbookm1pro/Freelance/e-absensikasn/node_modules/rn-fetch-blob/android/build/intermediates/library_manifest/release/AndroidManifest.xml:40:13-47
	android:authorities
		ADDED from [:rn-fetch-blob] /Users/macbookm1pro/Freelance/e-absensikasn/node_modules/rn-fetch-blob/android/build/intermediates/library_manifest/release/AndroidManifest.xml:38:13-60
	android:exported
		ADDED from [:rn-fetch-blob] /Users/macbookm1pro/Freelance/e-absensikasn/node_modules/rn-fetch-blob/android/build/intermediates/library_manifest/release/AndroidManifest.xml:39:13-37
	android:name
		ADDED from [:rn-fetch-blob] /Users/macbookm1pro/Freelance/e-absensikasn/node_modules/rn-fetch-blob/android/build/intermediates/library_manifest/release/AndroidManifest.xml:37:13-62
activity#com.google.android.gms.common.api.GoogleApiActivity
ADDED from [com.google.android.gms:play-services-base:17.0.0] /Users/macbookm1pro/.gradle/caches/transforms-2/files-2.1/fc8046cb9a5df9499609a5f7f8270b1b/play-services-base-17.0.0/AndroidManifest.xml:23:9-26:75
	android:exported
		ADDED from [com.google.android.gms:play-services-base:17.0.0] /Users/macbookm1pro/.gradle/caches/transforms-2/files-2.1/fc8046cb9a5df9499609a5f7f8270b1b/play-services-base-17.0.0/AndroidManifest.xml:25:13-37
	android:theme
		ADDED from [com.google.android.gms:play-services-base:17.0.0] /Users/macbookm1pro/.gradle/caches/transforms-2/files-2.1/fc8046cb9a5df9499609a5f7f8270b1b/play-services-base-17.0.0/AndroidManifest.xml:26:13-72
	android:name
		ADDED from [com.google.android.gms:play-services-base:17.0.0] /Users/macbookm1pro/.gradle/caches/transforms-2/files-2.1/fc8046cb9a5df9499609a5f7f8270b1b/play-services-base-17.0.0/AndroidManifest.xml:24:13-79
meta-data#com.google.android.gms.version
ADDED from [com.google.android.gms:play-services-basement:17.0.0] /Users/macbookm1pro/.gradle/caches/transforms-2/files-2.1/76f078f561b222e800a21b70aa1a106b/jetified-play-services-basement-17.0.0/AndroidManifest.xml:23:9-25:69
	android:value
		ADDED from [com.google.android.gms:play-services-basement:17.0.0] /Users/macbookm1pro/.gradle/caches/transforms-2/files-2.1/76f078f561b222e800a21b70aa1a106b/jetified-play-services-basement-17.0.0/AndroidManifest.xml:25:13-66
	android:name
		ADDED from [com.google.android.gms:play-services-basement:17.0.0] /Users/macbookm1pro/.gradle/caches/transforms-2/files-2.1/76f078f561b222e800a21b70aa1a106b/jetified-play-services-basement-17.0.0/AndroidManifest.xml:24:13-58
