-- Merging decision tree log ---
manifest
ADDED from /Users/macbookm1pro/Freelance/e-absensikasn/android/app/src/main/AndroidManifest.xml:1:1-32:12
INJECTED from /Users/macbookm1pro/Freelance/e-absensikasn/android/app/src/main/AndroidManifest.xml:1:1-32:12
INJECTED from /Users/macbookm1pro/Freelance/e-absensikasn/android/app/src/main/AndroidManifest.xml:1:1-32:12
INJECTED from /Users/macbookm1pro/Freelance/e-absensikasn/android/app/src/main/AndroidManifest.xml:1:1-32:12
MERGED from /Users/macbookm1pro/Freelance/e-absensikasn/android/app/src/main/AndroidManifest.xml:1:1-32:12
MERGED from [com.facebook.flipper:flipper:0.54.0] /Users/macbookm1pro/.gradle/caches/transforms-2/files-2.1/1c7787ec82631e0394972c76bdabe608/flipper-0.54.0/AndroidManifest.xml:8:1-18:12
MERGED from [com.facebook.flipper:flipper-network-plugin:0.54.0] /Users/macbookm1pro/.gradle/caches/transforms-2/files-2.1/bd2cab46fd45b530a274001375333ead/flipper-network-plugin-0.54.0/AndroidManifest.xml:8:1-15:12
MERGED from [com.facebook.flipper:flipper-fresco-plugin:0.54.0] /Users/macbookm1pro/.gradle/caches/transforms-2/files-2.1/dd7dfafbb0af41b4347f18654ea5c436/flipper-fresco-plugin-0.54.0/AndroidManifest.xml:8:1-15:12
MERGED from [:react-native-community_async-storage] /Users/macbookm1pro/Freelance/e-absensikasn/node_modules/@react-native-community/async-storage/android/build/intermediates/library_manifest/debug/AndroidManifest.xml:2:1-9:12
MERGED from [:react-native-community_geolocation] /Users/macbookm1pro/Freelance/e-absensikasn/node_modules/@react-native-community/geolocation/android/build/intermediates/library_manifest/debug/AndroidManifest.xml:2:1-9:12
MERGED from [:react-native-community_toolbar-android] /Users/macbookm1pro/Freelance/e-absensikasn/node_modules/@react-native-community/toolbar-android/android/build/intermediates/library_manifest/debug/AndroidManifest.xml:2:1-11:12
MERGED from [:react-native-android-location-enabler] /Users/macbookm1pro/Freelance/e-absensikasn/node_modules/react-native-android-location-enabler/android/build/intermediates/library_manifest/debug/AndroidManifest.xml:2:1-11:12
MERGED from [:react-native-cardview] /Users/macbookm1pro/Freelance/e-absensikasn/node_modules/react-native-cardview/android/build/intermediates/library_manifest/debug/AndroidManifest.xml:2:1-11:12
MERGED from [:react-native-code-push] /Users/macbookm1pro/Freelance/e-absensikasn/node_modules/react-native-code-push/android/app/build/intermediates/library_manifest/debug/AndroidManifest.xml:2:1-17:12
MERGED from [:react-native-gesture-handler] /Users/macbookm1pro/Freelance/e-absensikasn/node_modules/react-native-gesture-handler/android/build/intermediates/library_manifest/debug/AndroidManifest.xml:2:1-11:12
MERGED from [:react-native-image-picker] /Users/macbookm1pro/Freelance/e-absensikasn/node_modules/react-native-image-picker/android/build/intermediates/library_manifest/debug/AndroidManifest.xml:2:1-23:12
MERGED from [:react-native-reanimated] /Users/macbookm1pro/Freelance/e-absensikasn/node_modules/react-native-reanimated/android/build/intermediates/library_manifest/debug/AndroidManifest.xml:2:1-11:12
MERGED from [:react-native-vector-icons] /Users/macbookm1pro/Freelance/e-absensikasn/node_modules/react-native-vector-icons/android/build/intermediates/library_manifest/debug/AndroidManifest.xml:2:1-11:12
MERGED from [:rn-fetch-blob] /Users/macbookm1pro/Freelance/e-absensikasn/node_modules/rn-fetch-blob/android/build/intermediates/library_manifest/debug/AndroidManifest.xml:2:1-47:12
MERGED from [com.facebook.react:react-native:0.63.5] /Users/macbookm1pro/.gradle/caches/transforms-2/files-2.1/52346456014ea6b26359dc62b92dc3be/jetified-react-native-0.63.5/AndroidManifest.xml:2:1-13:12
MERGED from [androidx.swiperefreshlayout:swiperefreshlayout:1.0.0] /Users/macbookm1pro/.gradle/caches/transforms-2/files-2.1/37b6f551bc5ae153b0b627de8f563815/swiperefreshlayout-1.0.0/AndroidManifest.xml:17:1-22:12
MERGED from [org.webkit:android-jsc:r245459] /Users/macbookm1pro/.gradle/caches/transforms-2/files-2.1/6dd6245206e34676e1ee3aa6ee0f68c9/android-jsc-r245459/AndroidManifest.xml:2:1-11:12
MERGED from [com.facebook.fresco:flipper:2.2.0] /Users/macbookm1pro/.gradle/caches/transforms-2/files-2.1/40741ffe3de6a11d99116b4e82d60d46/flipper-2.2.0/AndroidManifest.xml:2:1-9:12
MERGED from [com.facebook.fresco:stetho:2.2.0] /Users/macbookm1pro/.gradle/caches/transforms-2/files-2.1/03aa51752e7d7098a02114b07907dabd/stetho-2.2.0/AndroidManifest.xml:2:1-9:12
MERGED from [com.facebook.fresco:fresco:2.2.0] /Users/macbookm1pro/.gradle/caches/transforms-2/files-2.1/e9f56679cbe795a6f7c93e9a035f66f2/fresco-2.2.0/AndroidManifest.xml:2:1-9:12
MERGED from [com.facebook.fresco:imagepipeline-okhttp3:2.0.0] /Users/macbookm1pro/.gradle/caches/transforms-2/files-2.1/559ddc4b7f576fedc63e05921b88e895/imagepipeline-okhttp3-2.0.0/AndroidManifest.xml:2:1-9:12
MERGED from [com.facebook.fresco:drawee:2.2.0] /Users/macbookm1pro/.gradle/caches/transforms-2/files-2.1/0288f1bca211d259126211029f92054c/drawee-2.2.0/AndroidManifest.xml:2:1-9:12
MERGED from [com.facebook.fresco:nativeimagefilters:2.2.0] /Users/macbookm1pro/.gradle/caches/transforms-2/files-2.1/766471e6648d662c31b10c1bbc5126fe/nativeimagefilters-2.2.0/AndroidManifest.xml:2:1-9:12
MERGED from [com.facebook.fresco:memory-type-native:2.2.0] /Users/macbookm1pro/.gradle/caches/transforms-2/files-2.1/57a87fccccbdbe36e69f72b01ce521f1/memory-type-native-2.2.0/AndroidManifest.xml:2:1-9:12
MERGED from [com.facebook.fresco:memory-type-java:2.2.0] /Users/macbookm1pro/.gradle/caches/transforms-2/files-2.1/0abe31decb23fc939dbab3bf21d1ccec/memory-type-java-2.2.0/AndroidManifest.xml:2:1-9:12
MERGED from [com.facebook.fresco:imagepipeline-native:2.2.0] /Users/macbookm1pro/.gradle/caches/transforms-2/files-2.1/3b508a8e13388bdc4e88ee330cec4cdc/imagepipeline-native-2.2.0/AndroidManifest.xml:2:1-9:12
MERGED from [com.facebook.fresco:memory-type-ashmem:2.2.0] /Users/macbookm1pro/.gradle/caches/transforms-2/files-2.1/104429b66e46c675401dada578683150/memory-type-ashmem-2.2.0/AndroidManifest.xml:2:1-9:12
MERGED from [com.facebook.fresco:imagepipeline:2.2.0] /Users/macbookm1pro/.gradle/caches/transforms-2/files-2.1/fe90bfac000734a7d0d9c150b7915ff6/imagepipeline-2.2.0/AndroidManifest.xml:2:1-9:12
MERGED from [com.facebook.fresco:nativeimagetranscoder:2.2.0] /Users/macbookm1pro/.gradle/caches/transforms-2/files-2.1/34efa7b8fb78d46cf2b753de7fbfc5a5/nativeimagetranscoder-2.2.0/AndroidManifest.xml:2:1-9:12
MERGED from [com.facebook.fresco:imagepipeline-base:2.2.0] /Users/macbookm1pro/.gradle/caches/transforms-2/files-2.1/237bbc58c0787eee6b78f947e2baeeaa/imagepipeline-base-2.2.0/AndroidManifest.xml:2:1-9:12
MERGED from [com.facebook.fresco:soloader:2.2.0] /Users/macbookm1pro/.gradle/caches/transforms-2/files-2.1/65f592cbf7e10992754db73be6c6ba25/soloader-2.2.0/AndroidManifest.xml:2:1-9:12
MERGED from [com.facebook.soloader:soloader:0.9.0] /Users/macbookm1pro/.gradle/caches/transforms-2/files-2.1/c34148f30cbc3e974eff21cbfb6a112a/soloader-0.9.0/AndroidManifest.xml:2:1-13:12
MERGED from [androidx.appcompat:appcompat:1.1.0] /Users/macbookm1pro/.gradle/caches/transforms-2/files-2.1/1cb9b9ea592aa2ea85233be252327dcf/appcompat-1.1.0/AndroidManifest.xml:17:1-24:12
MERGED from [androidx.appcompat:appcompat-resources:1.1.0] /Users/macbookm1pro/.gradle/caches/transforms-2/files-2.1/b1b165607eae60d70e4267b97e24514b/appcompat-resources-1.1.0/AndroidManifest.xml:17:1-24:12
MERGED from [androidx.vectordrawable:vectordrawable-animated:1.1.0] /Users/macbookm1pro/.gradle/caches/transforms-2/files-2.1/28888a6f6660db47b3788df392c672a7/vectordrawable-animated-1.1.0/AndroidManifest.xml:17:1-24:12
MERGED from [androidx.interpolator:interpolator:1.0.0] /Users/macbookm1pro/.gradle/caches/transforms-2/files-2.1/efb592adf2592d134c27edc4a56e19d2/interpolator-1.0.0/AndroidManifest.xml:17:1-22:12
MERGED from [androidx.cardview:cardview:1.0.0] /Users/macbookm1pro/.gradle/caches/transforms-2/files-2.1/7ce8a2eb9e81825ec9bcc373c597a746/cardview-1.0.0/AndroidManifest.xml:17:1-22:12
MERGED from [androidx.transition:transition:1.1.0] /Users/macbookm1pro/.gradle/caches/transforms-2/files-2.1/0543f56f80f0ca8ae69e84c65fb92ce7/transition-1.1.0/AndroidManifest.xml:17:1-22:12
MERGED from [com.google.android.gms:play-services-location:17.0.0] /Users/macbookm1pro/.gradle/caches/transforms-2/files-2.1/cfe184b2b3fc6f019a80d581fc6f7447/play-services-location-17.0.0/AndroidManifest.xml:2:1-9:12
MERGED from [com.google.android.gms:play-services-base:17.0.0] /Users/macbookm1pro/.gradle/caches/transforms-2/files-2.1/fc8046cb9a5df9499609a5f7f8270b1b/play-services-base-17.0.0/AndroidManifest.xml:17:1-29:12
MERGED from [com.google.android.gms:play-services-places-placereport:17.0.0] /Users/macbookm1pro/.gradle/caches/transforms-2/files-2.1/7aa1097eb47596f6fc594d09cb57b709/play-services-places-placereport-17.0.0/AndroidManifest.xml:17:1-24:12
MERGED from [com.google.android.gms:play-services-tasks:17.0.0] /Users/macbookm1pro/.gradle/caches/transforms-2/files-2.1/a5841d1417e823e700e7ed3e71829aa8/play-services-tasks-17.0.0/AndroidManifest.xml:2:1-9:12
MERGED from [com.google.android.gms:play-services-basement:17.0.0] /Users/macbookm1pro/.gradle/caches/transforms-2/files-2.1/76f078f561b222e800a21b70aa1a106b/jetified-play-services-basement-17.0.0/AndroidManifest.xml:17:1-28:12
MERGED from [androidx.fragment:fragment:1.1.0] /Users/macbookm1pro/.gradle/caches/transforms-2/files-2.1/c934b79c937aa60e75835d011c2154af/fragment-1.1.0/AndroidManifest.xml:17:1-24:12
MERGED from [androidx.drawerlayout:drawerlayout:1.0.0] /Users/macbookm1pro/.gradle/caches/transforms-2/files-2.1/c99af001058cd5265376dded8456f828/drawerlayout-1.0.0/AndroidManifest.xml:17:1-22:12
MERGED from [androidx.viewpager:viewpager:1.0.0] /Users/macbookm1pro/.gradle/caches/transforms-2/files-2.1/40f1c5d439eea30faeaafe93e7bdf45f/viewpager-1.0.0/AndroidManifest.xml:17:1-22:12
MERGED from [androidx.loader:loader:1.0.0] /Users/macbookm1pro/.gradle/caches/transforms-2/files-2.1/faa15558a5d57e35e462c9e1f0248694/loader-1.0.0/AndroidManifest.xml:17:1-22:12
MERGED from [androidx.activity:activity:1.0.0] /Users/macbookm1pro/.gradle/caches/transforms-2/files-2.1/cb2387ed8645a8641b6e8f462a3058a0/activity-1.0.0/AndroidManifest.xml:17:1-24:12
MERGED from [androidx.vectordrawable:vectordrawable:1.1.0] /Users/macbookm1pro/.gradle/caches/transforms-2/files-2.1/6bd464ed06f075f4e42b3fde6a89e60a/vectordrawable-1.1.0/AndroidManifest.xml:17:1-24:12
MERGED from [androidx.customview:customview:1.0.0] /Users/macbookm1pro/.gradle/caches/transforms-2/files-2.1/e0a79d4379c4eef3803202a497c19313/customview-1.0.0/AndroidManifest.xml:17:1-22:12
MERGED from [androidx.core:core:1.3.1] /Users/macbookm1pro/.gradle/caches/transforms-2/files-2.1/4f3e3536c8bf9e8cb1939d2a5eeaba3a/core-1.3.1/AndroidManifest.xml:17:1-26:12
MERGED from [androidx.exifinterface:exifinterface:1.3.3] /Users/macbookm1pro/.gradle/caches/transforms-2/files-2.1/000ecd2f1af685ac496fabbb2c7ee2dd/exifinterface-1.3.3/AndroidManifest.xml:17:1-24:12
MERGED from [androidx.cursoradapter:cursoradapter:1.0.0] /Users/macbookm1pro/.gradle/caches/transforms-2/files-2.1/3b41f2ef3d4a30256bbd9d1017371108/cursoradapter-1.0.0/AndroidManifest.xml:17:1-22:12
MERGED from [androidx.versionedparcelable:versionedparcelable:1.1.0] /Users/macbookm1pro/.gradle/caches/transforms-2/files-2.1/2786c84c1e653e40bd67508414ca298f/versionedparcelable-1.1.0/AndroidManifest.xml:17:1-27:12
MERGED from [androidx.lifecycle:lifecycle-runtime:2.1.0] /Users/macbookm1pro/.gradle/caches/transforms-2/files-2.1/7268e652b9483dcb77c195ad2a8fa532/lifecycle-runtime-2.1.0/AndroidManifest.xml:17:1-22:12
MERGED from [androidx.lifecycle:lifecycle-viewmodel:2.1.0] /Users/macbookm1pro/.gradle/caches/transforms-2/files-2.1/566e741fe30adc1beecccfb70fe55958/lifecycle-viewmodel-2.1.0/AndroidManifest.xml:17:1-22:12
MERGED from [androidx.savedstate:savedstate:1.0.0] /Users/macbookm1pro/.gradle/caches/transforms-2/files-2.1/4ce17f8b4390b23da9bedc3cee010ec1/savedstate-1.0.0/AndroidManifest.xml:17:1-24:12
MERGED from [androidx.lifecycle:lifecycle-livedata:2.0.0] /Users/macbookm1pro/.gradle/caches/transforms-2/files-2.1/4da6ddd3c71dbaec92b0fdf3bbca4ce7/lifecycle-livedata-2.0.0/AndroidManifest.xml:17:1-22:12
MERGED from [androidx.lifecycle:lifecycle-livedata-core:2.0.0] /Users/macbookm1pro/.gradle/caches/transforms-2/files-2.1/7795d60208f5dec52ee32d30407c8252/lifecycle-livedata-core-2.0.0/AndroidManifest.xml:17:1-22:12
MERGED from [androidx.arch.core:core-runtime:2.0.0] /Users/macbookm1pro/.gradle/caches/transforms-2/files-2.1/9c44c714e7f61700ba86ba0b726bac90/core-runtime-2.0.0/AndroidManifest.xml:17:1-22:12
MERGED from [com.facebook.fresco:fbcore:2.2.0] /Users/macbookm1pro/.gradle/caches/transforms-2/files-2.1/3ba7befef116386fc6f268162c72a495/jetified-fbcore-2.2.0/AndroidManifest.xml:2:1-9:12
MERGED from [com.facebook.fresco:ui-common:2.2.0] /Users/macbookm1pro/.gradle/caches/transforms-2/files-2.1/c114d4501470930b3986c4f9bd2da0fd/ui-common-2.2.0/AndroidManifest.xml:2:1-9:12
INJECTED from /Users/macbookm1pro/Freelance/e-absensikasn/android/app/src/debug/AndroidManifest.xml:2:1-8:12
INJECTED from /Users/macbookm1pro/Freelance/e-absensikasn/android/app/src/debug/AndroidManifest.xml:2:1-8:12
INJECTED from /Users/macbookm1pro/Freelance/e-absensikasn/android/app/src/debug/AndroidManifest.xml:2:1-8:12
	package
		ADDED from /Users/macbookm1pro/Freelance/e-absensikasn/android/app/src/main/AndroidManifest.xml:2:3-39
		INJECTED from /Users/macbookm1pro/Freelance/e-absensikasn/android/app/src/main/AndroidManifest.xml
		ADDED from /Users/macbookm1pro/Freelance/e-absensikasn/android/app/src/main/AndroidManifest.xml:2:3-39
		INJECTED from /Users/macbookm1pro/Freelance/e-absensikasn/android/app/src/debug/AndroidManifest.xml
	android:versionName
		INJECTED from /Users/macbookm1pro/Freelance/e-absensikasn/android/app/src/main/AndroidManifest.xml
		ADDED from /Users/macbookm1pro/Freelance/e-absensikasn/android/app/src/main/AndroidManifest.xml:1:1-32:12
		INJECTED from /Users/macbookm1pro/Freelance/e-absensikasn/android/app/src/debug/AndroidManifest.xml
	xmlns:tools
		ADDED from /Users/macbookm1pro/Freelance/e-absensikasn/android/app/src/debug/AndroidManifest.xml:3:5-51
	android:versionCode
		INJECTED from /Users/macbookm1pro/Freelance/e-absensikasn/android/app/src/main/AndroidManifest.xml
		ADDED from /Users/macbookm1pro/Freelance/e-absensikasn/android/app/src/main/AndroidManifest.xml:1:1-32:12
		INJECTED from /Users/macbookm1pro/Freelance/e-absensikasn/android/app/src/debug/AndroidManifest.xml
	xmlns:android
		ADDED from /Users/macbookm1pro/Freelance/e-absensikasn/android/app/src/main/AndroidManifest.xml:1:11-69
uses-permission#android.permission.INTERNET
ADDED from /Users/macbookm1pro/Freelance/e-absensikasn/android/app/src/main/AndroidManifest.xml:4:5-67
MERGED from [com.facebook.flipper:flipper:0.54.0] /Users/macbookm1pro/.gradle/caches/transforms-2/files-2.1/1c7787ec82631e0394972c76bdabe608/flipper-0.54.0/AndroidManifest.xml:15:5-67
MERGED from [com.facebook.flipper:flipper:0.54.0] /Users/macbookm1pro/.gradle/caches/transforms-2/files-2.1/1c7787ec82631e0394972c76bdabe608/flipper-0.54.0/AndroidManifest.xml:15:5-67
MERGED from [:react-native-code-push] /Users/macbookm1pro/Freelance/e-absensikasn/node_modules/react-native-code-push/android/app/build/intermediates/library_manifest/debug/AndroidManifest.xml:11:5-67
MERGED from [:react-native-code-push] /Users/macbookm1pro/Freelance/e-absensikasn/node_modules/react-native-code-push/android/app/build/intermediates/library_manifest/debug/AndroidManifest.xml:11:5-67
MERGED from [:rn-fetch-blob] /Users/macbookm1pro/Freelance/e-absensikasn/node_modules/rn-fetch-blob/android/build/intermediates/library_manifest/debug/AndroidManifest.xml:15:5-67
MERGED from [:rn-fetch-blob] /Users/macbookm1pro/Freelance/e-absensikasn/node_modules/rn-fetch-blob/android/build/intermediates/library_manifest/debug/AndroidManifest.xml:15:5-67
	android:name
		ADDED from /Users/macbookm1pro/Freelance/e-absensikasn/android/app/src/main/AndroidManifest.xml:4:22-64
uses-permission#android.permission.ACCESS_FINE_LOCATION
ADDED from /Users/macbookm1pro/Freelance/e-absensikasn/android/app/src/main/AndroidManifest.xml:5:5-79
	android:name
		ADDED from /Users/macbookm1pro/Freelance/e-absensikasn/android/app/src/main/AndroidManifest.xml:5:22-76
uses-permission#android.permission.CAMERA
ADDED from /Users/macbookm1pro/Freelance/e-absensikasn/android/app/src/main/AndroidManifest.xml:6:5-65
	android:name
		ADDED from /Users/macbookm1pro/Freelance/e-absensikasn/android/app/src/main/AndroidManifest.xml:6:22-62
uses-permission#android.permission.WRITE_EXTERNAL_STORAGE
ADDED from /Users/macbookm1pro/Freelance/e-absensikasn/android/app/src/main/AndroidManifest.xml:7:5-80
MERGED from [:rn-fetch-blob] /Users/macbookm1pro/Freelance/e-absensikasn/node_modules/rn-fetch-blob/android/build/intermediates/library_manifest/debug/AndroidManifest.xml:33:5-81
MERGED from [:rn-fetch-blob] /Users/macbookm1pro/Freelance/e-absensikasn/node_modules/rn-fetch-blob/android/build/intermediates/library_manifest/debug/AndroidManifest.xml:33:5-81
	android:name
		ADDED from /Users/macbookm1pro/Freelance/e-absensikasn/android/app/src/main/AndroidManifest.xml:7:22-78
application
ADDED from /Users/macbookm1pro/Freelance/e-absensikasn/android/app/src/main/AndroidManifest.xml:9:5-30:19
MERGED from /Users/macbookm1pro/Freelance/e-absensikasn/android/app/src/main/AndroidManifest.xml:9:5-30:19
MERGED from /Users/macbookm1pro/Freelance/e-absensikasn/android/app/src/main/AndroidManifest.xml:9:5-30:19
MERGED from [:react-native-code-push] /Users/macbookm1pro/Freelance/e-absensikasn/node_modules/react-native-code-push/android/app/build/intermediates/library_manifest/debug/AndroidManifest.xml:13:5-15:19
MERGED from [:react-native-code-push] /Users/macbookm1pro/Freelance/e-absensikasn/node_modules/react-native-code-push/android/app/build/intermediates/library_manifest/debug/AndroidManifest.xml:13:5-15:19
MERGED from [:react-native-image-picker] /Users/macbookm1pro/Freelance/e-absensikasn/node_modules/react-native-image-picker/android/build/intermediates/library_manifest/debug/AndroidManifest.xml:11:5-21:19
MERGED from [:react-native-image-picker] /Users/macbookm1pro/Freelance/e-absensikasn/node_modules/react-native-image-picker/android/build/intermediates/library_manifest/debug/AndroidManifest.xml:11:5-21:19
MERGED from [:rn-fetch-blob] /Users/macbookm1pro/Freelance/e-absensikasn/node_modules/rn-fetch-blob/android/build/intermediates/library_manifest/debug/AndroidManifest.xml:35:5-45:19
MERGED from [:rn-fetch-blob] /Users/macbookm1pro/Freelance/e-absensikasn/node_modules/rn-fetch-blob/android/build/intermediates/library_manifest/debug/AndroidManifest.xml:35:5-45:19
MERGED from [com.facebook.react:react-native:0.63.5] /Users/macbookm1pro/.gradle/caches/transforms-2/files-2.1/52346456014ea6b26359dc62b92dc3be/jetified-react-native-0.63.5/AndroidManifest.xml:11:5-20
MERGED from [com.facebook.react:react-native:0.63.5] /Users/macbookm1pro/.gradle/caches/transforms-2/files-2.1/52346456014ea6b26359dc62b92dc3be/jetified-react-native-0.63.5/AndroidManifest.xml:11:5-20
MERGED from [com.facebook.soloader:soloader:0.9.0] /Users/macbookm1pro/.gradle/caches/transforms-2/files-2.1/c34148f30cbc3e974eff21cbfb6a112a/soloader-0.9.0/AndroidManifest.xml:11:5-20
MERGED from [com.facebook.soloader:soloader:0.9.0] /Users/macbookm1pro/.gradle/caches/transforms-2/files-2.1/c34148f30cbc3e974eff21cbfb6a112a/soloader-0.9.0/AndroidManifest.xml:11:5-20
MERGED from [com.google.android.gms:play-services-location:17.0.0] /Users/macbookm1pro/.gradle/caches/transforms-2/files-2.1/cfe184b2b3fc6f019a80d581fc6f7447/play-services-location-17.0.0/AndroidManifest.xml:7:5-20
MERGED from [com.google.android.gms:play-services-location:17.0.0] /Users/macbookm1pro/.gradle/caches/transforms-2/files-2.1/cfe184b2b3fc6f019a80d581fc6f7447/play-services-location-17.0.0/AndroidManifest.xml:7:5-20
MERGED from [com.google.android.gms:play-services-base:17.0.0] /Users/macbookm1pro/.gradle/caches/transforms-2/files-2.1/fc8046cb9a5df9499609a5f7f8270b1b/play-services-base-17.0.0/AndroidManifest.xml:22:5-27:19
MERGED from [com.google.android.gms:play-services-base:17.0.0] /Users/macbookm1pro/.gradle/caches/transforms-2/files-2.1/fc8046cb9a5df9499609a5f7f8270b1b/play-services-base-17.0.0/AndroidManifest.xml:22:5-27:19
MERGED from [com.google.android.gms:play-services-places-placereport:17.0.0] /Users/macbookm1pro/.gradle/caches/transforms-2/files-2.1/7aa1097eb47596f6fc594d09cb57b709/play-services-places-placereport-17.0.0/AndroidManifest.xml:22:5-20
MERGED from [com.google.android.gms:play-services-places-placereport:17.0.0] /Users/macbookm1pro/.gradle/caches/transforms-2/files-2.1/7aa1097eb47596f6fc594d09cb57b709/play-services-places-placereport-17.0.0/AndroidManifest.xml:22:5-20
MERGED from [com.google.android.gms:play-services-tasks:17.0.0] /Users/macbookm1pro/.gradle/caches/transforms-2/files-2.1/a5841d1417e823e700e7ed3e71829aa8/play-services-tasks-17.0.0/AndroidManifest.xml:7:5-20
MERGED from [com.google.android.gms:play-services-tasks:17.0.0] /Users/macbookm1pro/.gradle/caches/transforms-2/files-2.1/a5841d1417e823e700e7ed3e71829aa8/play-services-tasks-17.0.0/AndroidManifest.xml:7:5-20
MERGED from [com.google.android.gms:play-services-basement:17.0.0] /Users/macbookm1pro/.gradle/caches/transforms-2/files-2.1/76f078f561b222e800a21b70aa1a106b/jetified-play-services-basement-17.0.0/AndroidManifest.xml:22:5-26:19
MERGED from [com.google.android.gms:play-services-basement:17.0.0] /Users/macbookm1pro/.gradle/caches/transforms-2/files-2.1/76f078f561b222e800a21b70aa1a106b/jetified-play-services-basement-17.0.0/AndroidManifest.xml:22:5-26:19
MERGED from [androidx.core:core:1.3.1] /Users/macbookm1pro/.gradle/caches/transforms-2/files-2.1/4f3e3536c8bf9e8cb1939d2a5eeaba3a/core-1.3.1/AndroidManifest.xml:24:5-89
MERGED from [androidx.core:core:1.3.1] /Users/macbookm1pro/.gradle/caches/transforms-2/files-2.1/4f3e3536c8bf9e8cb1939d2a5eeaba3a/core-1.3.1/AndroidManifest.xml:24:5-89
MERGED from [androidx.versionedparcelable:versionedparcelable:1.1.0] /Users/macbookm1pro/.gradle/caches/transforms-2/files-2.1/2786c84c1e653e40bd67508414ca298f/versionedparcelable-1.1.0/AndroidManifest.xml:24:5-25:19
MERGED from [androidx.versionedparcelable:versionedparcelable:1.1.0] /Users/macbookm1pro/.gradle/caches/transforms-2/files-2.1/2786c84c1e653e40bd67508414ca298f/versionedparcelable-1.1.0/AndroidManifest.xml:24:5-25:19
	android:requestLegacyExternalStorage
		ADDED from /Users/macbookm1pro/Freelance/e-absensikasn/android/app/src/main/AndroidManifest.xml:16:7-50
		ADDED from /Users/macbookm1pro/Freelance/e-absensikasn/android/app/src/main/AndroidManifest.xml:16:7-50
	android:appComponentFactory
		ADDED from [androidx.core:core:1.3.1] /Users/macbookm1pro/.gradle/caches/transforms-2/files-2.1/4f3e3536c8bf9e8cb1939d2a5eeaba3a/core-1.3.1/AndroidManifest.xml:24:18-86
	android:label
		ADDED from /Users/macbookm1pro/Freelance/e-absensikasn/android/app/src/main/AndroidManifest.xml:11:7-39
		ADDED from /Users/macbookm1pro/Freelance/e-absensikasn/android/app/src/main/AndroidManifest.xml:11:7-39
	tools:ignore
		ADDED from /Users/macbookm1pro/Freelance/e-absensikasn/android/app/src/debug/AndroidManifest.xml:7:75-114
	android:roundIcon
		ADDED from /Users/macbookm1pro/Freelance/e-absensikasn/android/app/src/main/AndroidManifest.xml:13:7-46
		ADDED from /Users/macbookm1pro/Freelance/e-absensikasn/android/app/src/main/AndroidManifest.xml:13:7-46
	tools:targetApi
		ADDED from /Users/macbookm1pro/Freelance/e-absensikasn/android/app/src/debug/AndroidManifest.xml:7:54-74
	android:icon
		ADDED from /Users/macbookm1pro/Freelance/e-absensikasn/android/app/src/main/AndroidManifest.xml:12:7-41
		ADDED from /Users/macbookm1pro/Freelance/e-absensikasn/android/app/src/main/AndroidManifest.xml:12:7-41
	android:allowBackup
		ADDED from /Users/macbookm1pro/Freelance/e-absensikasn/android/app/src/main/AndroidManifest.xml:14:7-34
		ADDED from /Users/macbookm1pro/Freelance/e-absensikasn/android/app/src/main/AndroidManifest.xml:14:7-34
	android:theme
		ADDED from /Users/macbookm1pro/Freelance/e-absensikasn/android/app/src/main/AndroidManifest.xml:17:7-38
		ADDED from /Users/macbookm1pro/Freelance/e-absensikasn/android/app/src/main/AndroidManifest.xml:17:7-38
	android:usesCleartextTraffic
		ADDED from /Users/macbookm1pro/Freelance/e-absensikasn/android/app/src/main/AndroidManifest.xml:15:7-42
	android:name
		ADDED from /Users/macbookm1pro/Freelance/e-absensikasn/android/app/src/main/AndroidManifest.xml:10:7-38
		ADDED from /Users/macbookm1pro/Freelance/e-absensikasn/android/app/src/main/AndroidManifest.xml:10:7-38
activity#id.co.insite.eabsensi.kasn.MainActivity
ADDED from /Users/macbookm1pro/Freelance/e-absensikasn/android/app/src/main/AndroidManifest.xml:18:7-28:18
	android:label
		ADDED from /Users/macbookm1pro/Freelance/e-absensikasn/android/app/src/main/AndroidManifest.xml:20:9-41
	android:launchMode
		ADDED from /Users/macbookm1pro/Freelance/e-absensikasn/android/app/src/main/AndroidManifest.xml:22:9-40
	android:windowSoftInputMode
		ADDED from /Users/macbookm1pro/Freelance/e-absensikasn/android/app/src/main/AndroidManifest.xml:23:9-51
	android:configChanges
		ADDED from /Users/macbookm1pro/Freelance/e-absensikasn/android/app/src/main/AndroidManifest.xml:21:9-86
	android:name
		ADDED from /Users/macbookm1pro/Freelance/e-absensikasn/android/app/src/main/AndroidManifest.xml:19:9-37
intent-filter#action:name:android.intent.action.MAIN+category:name:android.intent.category.LAUNCHER
ADDED from /Users/macbookm1pro/Freelance/e-absensikasn/android/app/src/main/AndroidManifest.xml:24:9-27:25
action#android.intent.action.MAIN
ADDED from /Users/macbookm1pro/Freelance/e-absensikasn/android/app/src/main/AndroidManifest.xml:25:13-65
	android:name
		ADDED from /Users/macbookm1pro/Freelance/e-absensikasn/android/app/src/main/AndroidManifest.xml:25:21-62
category#android.intent.category.LAUNCHER
ADDED from /Users/macbookm1pro/Freelance/e-absensikasn/android/app/src/main/AndroidManifest.xml:26:13-73
	android:name
		ADDED from /Users/macbookm1pro/Freelance/e-absensikasn/android/app/src/main/AndroidManifest.xml:26:23-70
activity#com.facebook.react.devsupport.DevSettingsActivity
ADDED from /Users/macbookm1pro/Freelance/e-absensikasn/android/app/src/main/AndroidManifest.xml:29:7-84
MERGED from [:react-native-code-push] /Users/macbookm1pro/Freelance/e-absensikasn/node_modules/react-native-code-push/android/app/build/intermediates/library_manifest/debug/AndroidManifest.xml:14:9-86
MERGED from [:react-native-code-push] /Users/macbookm1pro/Freelance/e-absensikasn/node_modules/react-native-code-push/android/app/build/intermediates/library_manifest/debug/AndroidManifest.xml:14:9-86
	android:name
		ADDED from /Users/macbookm1pro/Freelance/e-absensikasn/android/app/src/main/AndroidManifest.xml:29:17-81
uses-sdk
INJECTED from /Users/macbookm1pro/Freelance/e-absensikasn/android/app/src/main/AndroidManifest.xml reason: use-sdk injection requested
INJECTED from /Users/macbookm1pro/Freelance/e-absensikasn/android/app/src/main/AndroidManifest.xml
INJECTED from /Users/macbookm1pro/Freelance/e-absensikasn/android/app/src/main/AndroidManifest.xml
MERGED from [com.facebook.flipper:flipper:0.54.0] /Users/macbookm1pro/.gradle/caches/transforms-2/files-2.1/1c7787ec82631e0394972c76bdabe608/flipper-0.54.0/AndroidManifest.xml:11:5-13:41
MERGED from [com.facebook.flipper:flipper:0.54.0] /Users/macbookm1pro/.gradle/caches/transforms-2/files-2.1/1c7787ec82631e0394972c76bdabe608/flipper-0.54.0/AndroidManifest.xml:11:5-13:41
MERGED from [com.facebook.flipper:flipper-network-plugin:0.54.0] /Users/macbookm1pro/.gradle/caches/transforms-2/files-2.1/bd2cab46fd45b530a274001375333ead/flipper-network-plugin-0.54.0/AndroidManifest.xml:11:5-13:41
MERGED from [com.facebook.flipper:flipper-network-plugin:0.54.0] /Users/macbookm1pro/.gradle/caches/transforms-2/files-2.1/bd2cab46fd45b530a274001375333ead/flipper-network-plugin-0.54.0/AndroidManifest.xml:11:5-13:41
MERGED from [com.facebook.flipper:flipper-fresco-plugin:0.54.0] /Users/macbookm1pro/.gradle/caches/transforms-2/files-2.1/dd7dfafbb0af41b4347f18654ea5c436/flipper-fresco-plugin-0.54.0/AndroidManifest.xml:11:5-13:41
MERGED from [com.facebook.flipper:flipper-fresco-plugin:0.54.0] /Users/macbookm1pro/.gradle/caches/transforms-2/files-2.1/dd7dfafbb0af41b4347f18654ea5c436/flipper-fresco-plugin-0.54.0/AndroidManifest.xml:11:5-13:41
MERGED from [:react-native-community_async-storage] /Users/macbookm1pro/Freelance/e-absensikasn/node_modules/@react-native-community/async-storage/android/build/intermediates/library_manifest/debug/AndroidManifest.xml:5:5-7:41
MERGED from [:react-native-community_async-storage] /Users/macbookm1pro/Freelance/e-absensikasn/node_modules/@react-native-community/async-storage/android/build/intermediates/library_manifest/debug/AndroidManifest.xml:5:5-7:41
MERGED from [:react-native-community_geolocation] /Users/macbookm1pro/Freelance/e-absensikasn/node_modules/@react-native-community/geolocation/android/build/intermediates/library_manifest/debug/AndroidManifest.xml:5:5-7:41
MERGED from [:react-native-community_geolocation] /Users/macbookm1pro/Freelance/e-absensikasn/node_modules/@react-native-community/geolocation/android/build/intermediates/library_manifest/debug/AndroidManifest.xml:5:5-7:41
MERGED from [:react-native-community_toolbar-android] /Users/macbookm1pro/Freelance/e-absensikasn/node_modules/@react-native-community/toolbar-android/android/build/intermediates/library_manifest/debug/AndroidManifest.xml:7:5-9:41
MERGED from [:react-native-community_toolbar-android] /Users/macbookm1pro/Freelance/e-absensikasn/node_modules/@react-native-community/toolbar-android/android/build/intermediates/library_manifest/debug/AndroidManifest.xml:7:5-9:41
MERGED from [:react-native-android-location-enabler] /Users/macbookm1pro/Freelance/e-absensikasn/node_modules/react-native-android-location-enabler/android/build/intermediates/library_manifest/debug/AndroidManifest.xml:7:5-9:41
MERGED from [:react-native-android-location-enabler] /Users/macbookm1pro/Freelance/e-absensikasn/node_modules/react-native-android-location-enabler/android/build/intermediates/library_manifest/debug/AndroidManifest.xml:7:5-9:41
MERGED from [:react-native-cardview] /Users/macbookm1pro/Freelance/e-absensikasn/node_modules/react-native-cardview/android/build/intermediates/library_manifest/debug/AndroidManifest.xml:7:5-9:41
MERGED from [:react-native-cardview] /Users/macbookm1pro/Freelance/e-absensikasn/node_modules/react-native-cardview/android/build/intermediates/library_manifest/debug/AndroidManifest.xml:7:5-9:41
MERGED from [:react-native-code-push] /Users/macbookm1pro/Freelance/e-absensikasn/node_modules/react-native-code-push/android/app/build/intermediates/library_manifest/debug/AndroidManifest.xml:7:5-9:41
MERGED from [:react-native-code-push] /Users/macbookm1pro/Freelance/e-absensikasn/node_modules/react-native-code-push/android/app/build/intermediates/library_manifest/debug/AndroidManifest.xml:7:5-9:41
MERGED from [:react-native-gesture-handler] /Users/macbookm1pro/Freelance/e-absensikasn/node_modules/react-native-gesture-handler/android/build/intermediates/library_manifest/debug/AndroidManifest.xml:7:5-9:41
MERGED from [:react-native-gesture-handler] /Users/macbookm1pro/Freelance/e-absensikasn/node_modules/react-native-gesture-handler/android/build/intermediates/library_manifest/debug/AndroidManifest.xml:7:5-9:41
MERGED from [:react-native-image-picker] /Users/macbookm1pro/Freelance/e-absensikasn/node_modules/react-native-image-picker/android/build/intermediates/library_manifest/debug/AndroidManifest.xml:7:5-9:41
MERGED from [:react-native-image-picker] /Users/macbookm1pro/Freelance/e-absensikasn/node_modules/react-native-image-picker/android/build/intermediates/library_manifest/debug/AndroidManifest.xml:7:5-9:41
MERGED from [:react-native-reanimated] /Users/macbookm1pro/Freelance/e-absensikasn/node_modules/react-native-reanimated/android/build/intermediates/library_manifest/debug/AndroidManifest.xml:7:5-9:41
MERGED from [:react-native-reanimated] /Users/macbookm1pro/Freelance/e-absensikasn/node_modules/react-native-reanimated/android/build/intermediates/library_manifest/debug/AndroidManifest.xml:7:5-9:41
MERGED from [:react-native-vector-icons] /Users/macbookm1pro/Freelance/e-absensikasn/node_modules/react-native-vector-icons/android/build/intermediates/library_manifest/debug/AndroidManifest.xml:7:5-9:41
MERGED from [:react-native-vector-icons] /Users/macbookm1pro/Freelance/e-absensikasn/node_modules/react-native-vector-icons/android/build/intermediates/library_manifest/debug/AndroidManifest.xml:7:5-9:41
MERGED from [:rn-fetch-blob] /Users/macbookm1pro/Freelance/e-absensikasn/node_modules/rn-fetch-blob/android/build/intermediates/library_manifest/debug/AndroidManifest.xml:7:5-9:41
MERGED from [:rn-fetch-blob] /Users/macbookm1pro/Freelance/e-absensikasn/node_modules/rn-fetch-blob/android/build/intermediates/library_manifest/debug/AndroidManifest.xml:7:5-9:41
MERGED from [com.facebook.react:react-native:0.63.5] /Users/macbookm1pro/.gradle/caches/transforms-2/files-2.1/52346456014ea6b26359dc62b92dc3be/jetified-react-native-0.63.5/AndroidManifest.xml:7:5-9:41
MERGED from [com.facebook.react:react-native:0.63.5] /Users/macbookm1pro/.gradle/caches/transforms-2/files-2.1/52346456014ea6b26359dc62b92dc3be/jetified-react-native-0.63.5/AndroidManifest.xml:7:5-9:41
MERGED from [androidx.swiperefreshlayout:swiperefreshlayout:1.0.0] /Users/macbookm1pro/.gradle/caches/transforms-2/files-2.1/37b6f551bc5ae153b0b627de8f563815/swiperefreshlayout-1.0.0/AndroidManifest.xml:20:5-44
MERGED from [androidx.swiperefreshlayout:swiperefreshlayout:1.0.0] /Users/macbookm1pro/.gradle/caches/transforms-2/files-2.1/37b6f551bc5ae153b0b627de8f563815/swiperefreshlayout-1.0.0/AndroidManifest.xml:20:5-44
MERGED from [org.webkit:android-jsc:r245459] /Users/macbookm1pro/.gradle/caches/transforms-2/files-2.1/6dd6245206e34676e1ee3aa6ee0f68c9/android-jsc-r245459/AndroidManifest.xml:7:5-9:41
MERGED from [org.webkit:android-jsc:r245459] /Users/macbookm1pro/.gradle/caches/transforms-2/files-2.1/6dd6245206e34676e1ee3aa6ee0f68c9/android-jsc-r245459/AndroidManifest.xml:7:5-9:41
MERGED from [com.facebook.fresco:flipper:2.2.0] /Users/macbookm1pro/.gradle/caches/transforms-2/files-2.1/40741ffe3de6a11d99116b4e82d60d46/flipper-2.2.0/AndroidManifest.xml:5:5-7:41
MERGED from [com.facebook.fresco:flipper:2.2.0] /Users/macbookm1pro/.gradle/caches/transforms-2/files-2.1/40741ffe3de6a11d99116b4e82d60d46/flipper-2.2.0/AndroidManifest.xml:5:5-7:41
MERGED from [com.facebook.fresco:stetho:2.2.0] /Users/macbookm1pro/.gradle/caches/transforms-2/files-2.1/03aa51752e7d7098a02114b07907dabd/stetho-2.2.0/AndroidManifest.xml:5:5-7:41
MERGED from [com.facebook.fresco:stetho:2.2.0] /Users/macbookm1pro/.gradle/caches/transforms-2/files-2.1/03aa51752e7d7098a02114b07907dabd/stetho-2.2.0/AndroidManifest.xml:5:5-7:41
MERGED from [com.facebook.fresco:fresco:2.2.0] /Users/macbookm1pro/.gradle/caches/transforms-2/files-2.1/e9f56679cbe795a6f7c93e9a035f66f2/fresco-2.2.0/AndroidManifest.xml:5:5-7:41
MERGED from [com.facebook.fresco:fresco:2.2.0] /Users/macbookm1pro/.gradle/caches/transforms-2/files-2.1/e9f56679cbe795a6f7c93e9a035f66f2/fresco-2.2.0/AndroidManifest.xml:5:5-7:41
MERGED from [com.facebook.fresco:imagepipeline-okhttp3:2.0.0] /Users/macbookm1pro/.gradle/caches/transforms-2/files-2.1/559ddc4b7f576fedc63e05921b88e895/imagepipeline-okhttp3-2.0.0/AndroidManifest.xml:5:5-7:41
MERGED from [com.facebook.fresco:imagepipeline-okhttp3:2.0.0] /Users/macbookm1pro/.gradle/caches/transforms-2/files-2.1/559ddc4b7f576fedc63e05921b88e895/imagepipeline-okhttp3-2.0.0/AndroidManifest.xml:5:5-7:41
MERGED from [com.facebook.fresco:drawee:2.2.0] /Users/macbookm1pro/.gradle/caches/transforms-2/files-2.1/0288f1bca211d259126211029f92054c/drawee-2.2.0/AndroidManifest.xml:5:5-7:41
MERGED from [com.facebook.fresco:drawee:2.2.0] /Users/macbookm1pro/.gradle/caches/transforms-2/files-2.1/0288f1bca211d259126211029f92054c/drawee-2.2.0/AndroidManifest.xml:5:5-7:41
MERGED from [com.facebook.fresco:nativeimagefilters:2.2.0] /Users/macbookm1pro/.gradle/caches/transforms-2/files-2.1/766471e6648d662c31b10c1bbc5126fe/nativeimagefilters-2.2.0/AndroidManifest.xml:5:5-7:41
MERGED from [com.facebook.fresco:nativeimagefilters:2.2.0] /Users/macbookm1pro/.gradle/caches/transforms-2/files-2.1/766471e6648d662c31b10c1bbc5126fe/nativeimagefilters-2.2.0/AndroidManifest.xml:5:5-7:41
MERGED from [com.facebook.fresco:memory-type-native:2.2.0] /Users/macbookm1pro/.gradle/caches/transforms-2/files-2.1/57a87fccccbdbe36e69f72b01ce521f1/memory-type-native-2.2.0/AndroidManifest.xml:5:5-7:41
MERGED from [com.facebook.fresco:memory-type-native:2.2.0] /Users/macbookm1pro/.gradle/caches/transforms-2/files-2.1/57a87fccccbdbe36e69f72b01ce521f1/memory-type-native-2.2.0/AndroidManifest.xml:5:5-7:41
MERGED from [com.facebook.fresco:memory-type-java:2.2.0] /Users/macbookm1pro/.gradle/caches/transforms-2/files-2.1/0abe31decb23fc939dbab3bf21d1ccec/memory-type-java-2.2.0/AndroidManifest.xml:5:5-7:41
MERGED from [com.facebook.fresco:memory-type-java:2.2.0] /Users/macbookm1pro/.gradle/caches/transforms-2/files-2.1/0abe31decb23fc939dbab3bf21d1ccec/memory-type-java-2.2.0/AndroidManifest.xml:5:5-7:41
MERGED from [com.facebook.fresco:imagepipeline-native:2.2.0] /Users/macbookm1pro/.gradle/caches/transforms-2/files-2.1/3b508a8e13388bdc4e88ee330cec4cdc/imagepipeline-native-2.2.0/AndroidManifest.xml:5:5-7:41
MERGED from [com.facebook.fresco:imagepipeline-native:2.2.0] /Users/macbookm1pro/.gradle/caches/transforms-2/files-2.1/3b508a8e13388bdc4e88ee330cec4cdc/imagepipeline-native-2.2.0/AndroidManifest.xml:5:5-7:41
MERGED from [com.facebook.fresco:memory-type-ashmem:2.2.0] /Users/macbookm1pro/.gradle/caches/transforms-2/files-2.1/104429b66e46c675401dada578683150/memory-type-ashmem-2.2.0/AndroidManifest.xml:5:5-7:41
MERGED from [com.facebook.fresco:memory-type-ashmem:2.2.0] /Users/macbookm1pro/.gradle/caches/transforms-2/files-2.1/104429b66e46c675401dada578683150/memory-type-ashmem-2.2.0/AndroidManifest.xml:5:5-7:41
MERGED from [com.facebook.fresco:imagepipeline:2.2.0] /Users/macbookm1pro/.gradle/caches/transforms-2/files-2.1/fe90bfac000734a7d0d9c150b7915ff6/imagepipeline-2.2.0/AndroidManifest.xml:5:5-7:41
MERGED from [com.facebook.fresco:imagepipeline:2.2.0] /Users/macbookm1pro/.gradle/caches/transforms-2/files-2.1/fe90bfac000734a7d0d9c150b7915ff6/imagepipeline-2.2.0/AndroidManifest.xml:5:5-7:41
MERGED from [com.facebook.fresco:nativeimagetranscoder:2.2.0] /Users/macbookm1pro/.gradle/caches/transforms-2/files-2.1/34efa7b8fb78d46cf2b753de7fbfc5a5/nativeimagetranscoder-2.2.0/AndroidManifest.xml:5:5-7:41
MERGED from [com.facebook.fresco:nativeimagetranscoder:2.2.0] /Users/macbookm1pro/.gradle/caches/transforms-2/files-2.1/34efa7b8fb78d46cf2b753de7fbfc5a5/nativeimagetranscoder-2.2.0/AndroidManifest.xml:5:5-7:41
MERGED from [com.facebook.fresco:imagepipeline-base:2.2.0] /Users/macbookm1pro/.gradle/caches/transforms-2/files-2.1/237bbc58c0787eee6b78f947e2baeeaa/imagepipeline-base-2.2.0/AndroidManifest.xml:5:5-7:41
MERGED from [com.facebook.fresco:imagepipeline-base:2.2.0] /Users/macbookm1pro/.gradle/caches/transforms-2/files-2.1/237bbc58c0787eee6b78f947e2baeeaa/imagepipeline-base-2.2.0/AndroidManifest.xml:5:5-7:41
MERGED from [com.facebook.fresco:soloader:2.2.0] /Users/macbookm1pro/.gradle/caches/transforms-2/files-2.1/65f592cbf7e10992754db73be6c6ba25/soloader-2.2.0/AndroidManifest.xml:5:5-7:41
MERGED from [com.facebook.fresco:soloader:2.2.0] /Users/macbookm1pro/.gradle/caches/transforms-2/files-2.1/65f592cbf7e10992754db73be6c6ba25/soloader-2.2.0/AndroidManifest.xml:5:5-7:41
MERGED from [com.facebook.soloader:soloader:0.9.0] /Users/macbookm1pro/.gradle/caches/transforms-2/files-2.1/c34148f30cbc3e974eff21cbfb6a112a/soloader-0.9.0/AndroidManifest.xml:7:5-9:41
MERGED from [com.facebook.soloader:soloader:0.9.0] /Users/macbookm1pro/.gradle/caches/transforms-2/files-2.1/c34148f30cbc3e974eff21cbfb6a112a/soloader-0.9.0/AndroidManifest.xml:7:5-9:41
MERGED from [androidx.appcompat:appcompat:1.1.0] /Users/macbookm1pro/.gradle/caches/transforms-2/files-2.1/1cb9b9ea592aa2ea85233be252327dcf/appcompat-1.1.0/AndroidManifest.xml:20:5-22:41
MERGED from [androidx.appcompat:appcompat:1.1.0] /Users/macbookm1pro/.gradle/caches/transforms-2/files-2.1/1cb9b9ea592aa2ea85233be252327dcf/appcompat-1.1.0/AndroidManifest.xml:20:5-22:41
MERGED from [androidx.appcompat:appcompat-resources:1.1.0] /Users/macbookm1pro/.gradle/caches/transforms-2/files-2.1/b1b165607eae60d70e4267b97e24514b/appcompat-resources-1.1.0/AndroidManifest.xml:20:5-22:41
MERGED from [androidx.appcompat:appcompat-resources:1.1.0] /Users/macbookm1pro/.gradle/caches/transforms-2/files-2.1/b1b165607eae60d70e4267b97e24514b/appcompat-resources-1.1.0/AndroidManifest.xml:20:5-22:41
MERGED from [androidx.vectordrawable:vectordrawable-animated:1.1.0] /Users/macbookm1pro/.gradle/caches/transforms-2/files-2.1/28888a6f6660db47b3788df392c672a7/vectordrawable-animated-1.1.0/AndroidManifest.xml:20:5-22:41
MERGED from [androidx.vectordrawable:vectordrawable-animated:1.1.0] /Users/macbookm1pro/.gradle/caches/transforms-2/files-2.1/28888a6f6660db47b3788df392c672a7/vectordrawable-animated-1.1.0/AndroidManifest.xml:20:5-22:41
MERGED from [androidx.interpolator:interpolator:1.0.0] /Users/macbookm1pro/.gradle/caches/transforms-2/files-2.1/efb592adf2592d134c27edc4a56e19d2/interpolator-1.0.0/AndroidManifest.xml:20:5-44
MERGED from [androidx.interpolator:interpolator:1.0.0] /Users/macbookm1pro/.gradle/caches/transforms-2/files-2.1/efb592adf2592d134c27edc4a56e19d2/interpolator-1.0.0/AndroidManifest.xml:20:5-44
MERGED from [androidx.cardview:cardview:1.0.0] /Users/macbookm1pro/.gradle/caches/transforms-2/files-2.1/7ce8a2eb9e81825ec9bcc373c597a746/cardview-1.0.0/AndroidManifest.xml:20:5-44
MERGED from [androidx.cardview:cardview:1.0.0] /Users/macbookm1pro/.gradle/caches/transforms-2/files-2.1/7ce8a2eb9e81825ec9bcc373c597a746/cardview-1.0.0/AndroidManifest.xml:20:5-44
MERGED from [androidx.transition:transition:1.1.0] /Users/macbookm1pro/.gradle/caches/transforms-2/files-2.1/0543f56f80f0ca8ae69e84c65fb92ce7/transition-1.1.0/AndroidManifest.xml:20:5-44
MERGED from [androidx.transition:transition:1.1.0] /Users/macbookm1pro/.gradle/caches/transforms-2/files-2.1/0543f56f80f0ca8ae69e84c65fb92ce7/transition-1.1.0/AndroidManifest.xml:20:5-44
MERGED from [com.google.android.gms:play-services-location:17.0.0] /Users/macbookm1pro/.gradle/caches/transforms-2/files-2.1/cfe184b2b3fc6f019a80d581fc6f7447/play-services-location-17.0.0/AndroidManifest.xml:5:5-44
MERGED from [com.google.android.gms:play-services-location:17.0.0] /Users/macbookm1pro/.gradle/caches/transforms-2/files-2.1/cfe184b2b3fc6f019a80d581fc6f7447/play-services-location-17.0.0/AndroidManifest.xml:5:5-44
MERGED from [com.google.android.gms:play-services-base:17.0.0] /Users/macbookm1pro/.gradle/caches/transforms-2/files-2.1/fc8046cb9a5df9499609a5f7f8270b1b/play-services-base-17.0.0/AndroidManifest.xml:20:5-44
MERGED from [com.google.android.gms:play-services-base:17.0.0] /Users/macbookm1pro/.gradle/caches/transforms-2/files-2.1/fc8046cb9a5df9499609a5f7f8270b1b/play-services-base-17.0.0/AndroidManifest.xml:20:5-44
MERGED from [com.google.android.gms:play-services-places-placereport:17.0.0] /Users/macbookm1pro/.gradle/caches/transforms-2/files-2.1/7aa1097eb47596f6fc594d09cb57b709/play-services-places-placereport-17.0.0/AndroidManifest.xml:20:5-44
MERGED from [com.google.android.gms:play-services-places-placereport:17.0.0] /Users/macbookm1pro/.gradle/caches/transforms-2/files-2.1/7aa1097eb47596f6fc594d09cb57b709/play-services-places-placereport-17.0.0/AndroidManifest.xml:20:5-44
MERGED from [com.google.android.gms:play-services-tasks:17.0.0] /Users/macbookm1pro/.gradle/caches/transforms-2/files-2.1/a5841d1417e823e700e7ed3e71829aa8/play-services-tasks-17.0.0/AndroidManifest.xml:5:5-44
MERGED from [com.google.android.gms:play-services-tasks:17.0.0] /Users/macbookm1pro/.gradle/caches/transforms-2/files-2.1/a5841d1417e823e700e7ed3e71829aa8/play-services-tasks-17.0.0/AndroidManifest.xml:5:5-44
MERGED from [com.google.android.gms:play-services-basement:17.0.0] /Users/macbookm1pro/.gradle/caches/transforms-2/files-2.1/76f078f561b222e800a21b70aa1a106b/jetified-play-services-basement-17.0.0/AndroidManifest.xml:20:5-44
MERGED from [com.google.android.gms:play-services-basement:17.0.0] /Users/macbookm1pro/.gradle/caches/transforms-2/files-2.1/76f078f561b222e800a21b70aa1a106b/jetified-play-services-basement-17.0.0/AndroidManifest.xml:20:5-44
MERGED from [androidx.fragment:fragment:1.1.0] /Users/macbookm1pro/.gradle/caches/transforms-2/files-2.1/c934b79c937aa60e75835d011c2154af/fragment-1.1.0/AndroidManifest.xml:20:5-22:41
MERGED from [androidx.fragment:fragment:1.1.0] /Users/macbookm1pro/.gradle/caches/transforms-2/files-2.1/c934b79c937aa60e75835d011c2154af/fragment-1.1.0/AndroidManifest.xml:20:5-22:41
MERGED from [androidx.drawerlayout:drawerlayout:1.0.0] /Users/macbookm1pro/.gradle/caches/transforms-2/files-2.1/c99af001058cd5265376dded8456f828/drawerlayout-1.0.0/AndroidManifest.xml:20:5-44
MERGED from [androidx.drawerlayout:drawerlayout:1.0.0] /Users/macbookm1pro/.gradle/caches/transforms-2/files-2.1/c99af001058cd5265376dded8456f828/drawerlayout-1.0.0/AndroidManifest.xml:20:5-44
MERGED from [androidx.viewpager:viewpager:1.0.0] /Users/macbookm1pro/.gradle/caches/transforms-2/files-2.1/40f1c5d439eea30faeaafe93e7bdf45f/viewpager-1.0.0/AndroidManifest.xml:20:5-44
MERGED from [androidx.viewpager:viewpager:1.0.0] /Users/macbookm1pro/.gradle/caches/transforms-2/files-2.1/40f1c5d439eea30faeaafe93e7bdf45f/viewpager-1.0.0/AndroidManifest.xml:20:5-44
MERGED from [androidx.loader:loader:1.0.0] /Users/macbookm1pro/.gradle/caches/transforms-2/files-2.1/faa15558a5d57e35e462c9e1f0248694/loader-1.0.0/AndroidManifest.xml:20:5-44
MERGED from [androidx.loader:loader:1.0.0] /Users/macbookm1pro/.gradle/caches/transforms-2/files-2.1/faa15558a5d57e35e462c9e1f0248694/loader-1.0.0/AndroidManifest.xml:20:5-44
MERGED from [androidx.activity:activity:1.0.0] /Users/macbookm1pro/.gradle/caches/transforms-2/files-2.1/cb2387ed8645a8641b6e8f462a3058a0/activity-1.0.0/AndroidManifest.xml:20:5-22:41
MERGED from [androidx.activity:activity:1.0.0] /Users/macbookm1pro/.gradle/caches/transforms-2/files-2.1/cb2387ed8645a8641b6e8f462a3058a0/activity-1.0.0/AndroidManifest.xml:20:5-22:41
MERGED from [androidx.vectordrawable:vectordrawable:1.1.0] /Users/macbookm1pro/.gradle/caches/transforms-2/files-2.1/6bd464ed06f075f4e42b3fde6a89e60a/vectordrawable-1.1.0/AndroidManifest.xml:20:5-22:41
MERGED from [androidx.vectordrawable:vectordrawable:1.1.0] /Users/macbookm1pro/.gradle/caches/transforms-2/files-2.1/6bd464ed06f075f4e42b3fde6a89e60a/vectordrawable-1.1.0/AndroidManifest.xml:20:5-22:41
MERGED from [androidx.customview:customview:1.0.0] /Users/macbookm1pro/.gradle/caches/transforms-2/files-2.1/e0a79d4379c4eef3803202a497c19313/customview-1.0.0/AndroidManifest.xml:20:5-44
MERGED from [androidx.customview:customview:1.0.0] /Users/macbookm1pro/.gradle/caches/transforms-2/files-2.1/e0a79d4379c4eef3803202a497c19313/customview-1.0.0/AndroidManifest.xml:20:5-44
MERGED from [androidx.core:core:1.3.1] /Users/macbookm1pro/.gradle/caches/transforms-2/files-2.1/4f3e3536c8bf9e8cb1939d2a5eeaba3a/core-1.3.1/AndroidManifest.xml:20:5-22:41
MERGED from [androidx.core:core:1.3.1] /Users/macbookm1pro/.gradle/caches/transforms-2/files-2.1/4f3e3536c8bf9e8cb1939d2a5eeaba3a/core-1.3.1/AndroidManifest.xml:20:5-22:41
MERGED from [androidx.exifinterface:exifinterface:1.3.3] /Users/macbookm1pro/.gradle/caches/transforms-2/files-2.1/000ecd2f1af685ac496fabbb2c7ee2dd/exifinterface-1.3.3/AndroidManifest.xml:20:5-22:41
MERGED from [androidx.exifinterface:exifinterface:1.3.3] /Users/macbookm1pro/.gradle/caches/transforms-2/files-2.1/000ecd2f1af685ac496fabbb2c7ee2dd/exifinterface-1.3.3/AndroidManifest.xml:20:5-22:41
MERGED from [androidx.cursoradapter:cursoradapter:1.0.0] /Users/macbookm1pro/.gradle/caches/transforms-2/files-2.1/3b41f2ef3d4a30256bbd9d1017371108/cursoradapter-1.0.0/AndroidManifest.xml:20:5-44
MERGED from [androidx.cursoradapter:cursoradapter:1.0.0] /Users/macbookm1pro/.gradle/caches/transforms-2/files-2.1/3b41f2ef3d4a30256bbd9d1017371108/cursoradapter-1.0.0/AndroidManifest.xml:20:5-44
MERGED from [androidx.versionedparcelable:versionedparcelable:1.1.0] /Users/macbookm1pro/.gradle/caches/transforms-2/files-2.1/2786c84c1e653e40bd67508414ca298f/versionedparcelable-1.1.0/AndroidManifest.xml:20:5-22:41
MERGED from [androidx.versionedparcelable:versionedparcelable:1.1.0] /Users/macbookm1pro/.gradle/caches/transforms-2/files-2.1/2786c84c1e653e40bd67508414ca298f/versionedparcelable-1.1.0/AndroidManifest.xml:20:5-22:41
MERGED from [androidx.lifecycle:lifecycle-runtime:2.1.0] /Users/macbookm1pro/.gradle/caches/transforms-2/files-2.1/7268e652b9483dcb77c195ad2a8fa532/lifecycle-runtime-2.1.0/AndroidManifest.xml:20:5-44
MERGED from [androidx.lifecycle:lifecycle-runtime:2.1.0] /Users/macbookm1pro/.gradle/caches/transforms-2/files-2.1/7268e652b9483dcb77c195ad2a8fa532/lifecycle-runtime-2.1.0/AndroidManifest.xml:20:5-44
MERGED from [androidx.lifecycle:lifecycle-viewmodel:2.1.0] /Users/macbookm1pro/.gradle/caches/transforms-2/files-2.1/566e741fe30adc1beecccfb70fe55958/lifecycle-viewmodel-2.1.0/AndroidManifest.xml:20:5-44
MERGED from [androidx.lifecycle:lifecycle-viewmodel:2.1.0] /Users/macbookm1pro/.gradle/caches/transforms-2/files-2.1/566e741fe30adc1beecccfb70fe55958/lifecycle-viewmodel-2.1.0/AndroidManifest.xml:20:5-44
MERGED from [androidx.savedstate:savedstate:1.0.0] /Users/macbookm1pro/.gradle/caches/transforms-2/files-2.1/4ce17f8b4390b23da9bedc3cee010ec1/savedstate-1.0.0/AndroidManifest.xml:20:5-22:41
MERGED from [androidx.savedstate:savedstate:1.0.0] /Users/macbookm1pro/.gradle/caches/transforms-2/files-2.1/4ce17f8b4390b23da9bedc3cee010ec1/savedstate-1.0.0/AndroidManifest.xml:20:5-22:41
MERGED from [androidx.lifecycle:lifecycle-livedata:2.0.0] /Users/macbookm1pro/.gradle/caches/transforms-2/files-2.1/4da6ddd3c71dbaec92b0fdf3bbca4ce7/lifecycle-livedata-2.0.0/AndroidManifest.xml:20:5-44
MERGED from [androidx.lifecycle:lifecycle-livedata:2.0.0] /Users/macbookm1pro/.gradle/caches/transforms-2/files-2.1/4da6ddd3c71dbaec92b0fdf3bbca4ce7/lifecycle-livedata-2.0.0/AndroidManifest.xml:20:5-44
MERGED from [androidx.lifecycle:lifecycle-livedata-core:2.0.0] /Users/macbookm1pro/.gradle/caches/transforms-2/files-2.1/7795d60208f5dec52ee32d30407c8252/lifecycle-livedata-core-2.0.0/AndroidManifest.xml:20:5-44
MERGED from [androidx.lifecycle:lifecycle-livedata-core:2.0.0] /Users/macbookm1pro/.gradle/caches/transforms-2/files-2.1/7795d60208f5dec52ee32d30407c8252/lifecycle-livedata-core-2.0.0/AndroidManifest.xml:20:5-44
MERGED from [androidx.arch.core:core-runtime:2.0.0] /Users/macbookm1pro/.gradle/caches/transforms-2/files-2.1/9c44c714e7f61700ba86ba0b726bac90/core-runtime-2.0.0/AndroidManifest.xml:20:5-44
MERGED from [androidx.arch.core:core-runtime:2.0.0] /Users/macbookm1pro/.gradle/caches/transforms-2/files-2.1/9c44c714e7f61700ba86ba0b726bac90/core-runtime-2.0.0/AndroidManifest.xml:20:5-44
MERGED from [com.facebook.fresco:fbcore:2.2.0] /Users/macbookm1pro/.gradle/caches/transforms-2/files-2.1/3ba7befef116386fc6f268162c72a495/jetified-fbcore-2.2.0/AndroidManifest.xml:5:5-7:41
MERGED from [com.facebook.fresco:fbcore:2.2.0] /Users/macbookm1pro/.gradle/caches/transforms-2/files-2.1/3ba7befef116386fc6f268162c72a495/jetified-fbcore-2.2.0/AndroidManifest.xml:5:5-7:41
MERGED from [com.facebook.fresco:ui-common:2.2.0] /Users/macbookm1pro/.gradle/caches/transforms-2/files-2.1/c114d4501470930b3986c4f9bd2da0fd/ui-common-2.2.0/AndroidManifest.xml:5:5-7:41
MERGED from [com.facebook.fresco:ui-common:2.2.0] /Users/macbookm1pro/.gradle/caches/transforms-2/files-2.1/c114d4501470930b3986c4f9bd2da0fd/ui-common-2.2.0/AndroidManifest.xml:5:5-7:41
INJECTED from /Users/macbookm1pro/Freelance/e-absensikasn/android/app/src/debug/AndroidManifest.xml
INJECTED from /Users/macbookm1pro/Freelance/e-absensikasn/android/app/src/debug/AndroidManifest.xml
	android:targetSdkVersion
		INJECTED from /Users/macbookm1pro/Freelance/e-absensikasn/android/app/src/main/AndroidManifest.xml
		INJECTED from /Users/macbookm1pro/Freelance/e-absensikasn/android/app/src/debug/AndroidManifest.xml
	android:minSdkVersion
		INJECTED from /Users/macbookm1pro/Freelance/e-absensikasn/android/app/src/main/AndroidManifest.xml
		INJECTED from /Users/macbookm1pro/Freelance/e-absensikasn/android/app/src/debug/AndroidManifest.xml
uses-permission#android.permission.SYSTEM_ALERT_WINDOW
ADDED from /Users/macbookm1pro/Freelance/e-absensikasn/android/app/src/debug/AndroidManifest.xml:5:5-77
	android:name
		ADDED from /Users/macbookm1pro/Freelance/e-absensikasn/android/app/src/debug/AndroidManifest.xml:5:22-75
uses-permission#android.permission.ACCESS_WIFI_STATE
ADDED from [com.facebook.flipper:flipper:0.54.0] /Users/macbookm1pro/.gradle/caches/transforms-2/files-2.1/1c7787ec82631e0394972c76bdabe608/flipper-0.54.0/AndroidManifest.xml:16:5-76
MERGED from [:rn-fetch-blob] /Users/macbookm1pro/Freelance/e-absensikasn/node_modules/rn-fetch-blob/android/build/intermediates/library_manifest/debug/AndroidManifest.xml:30:5-76
MERGED from [:rn-fetch-blob] /Users/macbookm1pro/Freelance/e-absensikasn/node_modules/rn-fetch-blob/android/build/intermediates/library_manifest/debug/AndroidManifest.xml:30:5-76
	android:name
		ADDED from [com.facebook.flipper:flipper:0.54.0] /Users/macbookm1pro/.gradle/caches/transforms-2/files-2.1/1c7787ec82631e0394972c76bdabe608/flipper-0.54.0/AndroidManifest.xml:16:22-73
provider#com.imagepicker.ImagePickerProvider
ADDED from [:react-native-image-picker] /Users/macbookm1pro/Freelance/e-absensikasn/node_modules/react-native-image-picker/android/build/intermediates/library_manifest/debug/AndroidManifest.xml:12:9-20:20
	android:grantUriPermissions
		ADDED from [:react-native-image-picker] /Users/macbookm1pro/Freelance/e-absensikasn/node_modules/react-native-image-picker/android/build/intermediates/library_manifest/debug/AndroidManifest.xml:16:13-47
	android:authorities
		ADDED from [:react-native-image-picker] /Users/macbookm1pro/Freelance/e-absensikasn/node_modules/react-native-image-picker/android/build/intermediates/library_manifest/debug/AndroidManifest.xml:14:13-71
	android:exported
		ADDED from [:react-native-image-picker] /Users/macbookm1pro/Freelance/e-absensikasn/node_modules/react-native-image-picker/android/build/intermediates/library_manifest/debug/AndroidManifest.xml:15:13-37
	android:name
		ADDED from [:react-native-image-picker] /Users/macbookm1pro/Freelance/e-absensikasn/node_modules/react-native-image-picker/android/build/intermediates/library_manifest/debug/AndroidManifest.xml:13:13-63
meta-data#android.support.FILE_PROVIDER_PATHS
ADDED from [:react-native-image-picker] /Users/macbookm1pro/Freelance/e-absensikasn/node_modules/react-native-image-picker/android/build/intermediates/library_manifest/debug/AndroidManifest.xml:17:13-19:70
	android:resource
		ADDED from [:react-native-image-picker] /Users/macbookm1pro/Freelance/e-absensikasn/node_modules/react-native-image-picker/android/build/intermediates/library_manifest/debug/AndroidManifest.xml:19:17-67
	android:name
		ADDED from [:react-native-image-picker] /Users/macbookm1pro/Freelance/e-absensikasn/node_modules/react-native-image-picker/android/build/intermediates/library_manifest/debug/AndroidManifest.xml:18:17-67
uses-permission#com.android.vending.CHECK_LICENSE
ADDED from [:rn-fetch-blob] /Users/macbookm1pro/Freelance/e-absensikasn/node_modules/rn-fetch-blob/android/build/intermediates/library_manifest/debug/AndroidManifest.xml:12:5-73
	android:name
		ADDED from [:rn-fetch-blob] /Users/macbookm1pro/Freelance/e-absensikasn/node_modules/rn-fetch-blob/android/build/intermediates/library_manifest/debug/AndroidManifest.xml:12:22-70
uses-permission#android.permission.WAKE_LOCK
ADDED from [:rn-fetch-blob] /Users/macbookm1pro/Freelance/e-absensikasn/node_modules/rn-fetch-blob/android/build/intermediates/library_manifest/debug/AndroidManifest.xml:21:5-68
	android:name
		ADDED from [:rn-fetch-blob] /Users/macbookm1pro/Freelance/e-absensikasn/node_modules/rn-fetch-blob/android/build/intermediates/library_manifest/debug/AndroidManifest.xml:21:22-65
uses-permission#android.permission.ACCESS_NETWORK_STATE
ADDED from [:rn-fetch-blob] /Users/macbookm1pro/Freelance/e-absensikasn/node_modules/rn-fetch-blob/android/build/intermediates/library_manifest/debug/AndroidManifest.xml:27:5-79
	android:name
		ADDED from [:rn-fetch-blob] /Users/macbookm1pro/Freelance/e-absensikasn/node_modules/rn-fetch-blob/android/build/intermediates/library_manifest/debug/AndroidManifest.xml:27:22-76
provider#com.RNFetchBlob.Utils.FileProvider
ADDED from [:rn-fetch-blob] /Users/macbookm1pro/Freelance/e-absensikasn/node_modules/rn-fetch-blob/android/build/intermediates/library_manifest/debug/AndroidManifest.xml:36:9-44:20
	android:grantUriPermissions
		ADDED from [:rn-fetch-blob] /Users/macbookm1pro/Freelance/e-absensikasn/node_modules/rn-fetch-blob/android/build/intermediates/library_manifest/debug/AndroidManifest.xml:40:13-47
	android:authorities
		ADDED from [:rn-fetch-blob] /Users/macbookm1pro/Freelance/e-absensikasn/node_modules/rn-fetch-blob/android/build/intermediates/library_manifest/debug/AndroidManifest.xml:38:13-60
	android:exported
		ADDED from [:rn-fetch-blob] /Users/macbookm1pro/Freelance/e-absensikasn/node_modules/rn-fetch-blob/android/build/intermediates/library_manifest/debug/AndroidManifest.xml:39:13-37
	android:name
		ADDED from [:rn-fetch-blob] /Users/macbookm1pro/Freelance/e-absensikasn/node_modules/rn-fetch-blob/android/build/intermediates/library_manifest/debug/AndroidManifest.xml:37:13-62
activity#com.google.android.gms.common.api.GoogleApiActivity
ADDED from [com.google.android.gms:play-services-base:17.0.0] /Users/macbookm1pro/.gradle/caches/transforms-2/files-2.1/fc8046cb9a5df9499609a5f7f8270b1b/play-services-base-17.0.0/AndroidManifest.xml:23:9-26:75
	android:exported
		ADDED from [com.google.android.gms:play-services-base:17.0.0] /Users/macbookm1pro/.gradle/caches/transforms-2/files-2.1/fc8046cb9a5df9499609a5f7f8270b1b/play-services-base-17.0.0/AndroidManifest.xml:25:13-37
	android:theme
		ADDED from [com.google.android.gms:play-services-base:17.0.0] /Users/macbookm1pro/.gradle/caches/transforms-2/files-2.1/fc8046cb9a5df9499609a5f7f8270b1b/play-services-base-17.0.0/AndroidManifest.xml:26:13-72
	android:name
		ADDED from [com.google.android.gms:play-services-base:17.0.0] /Users/macbookm1pro/.gradle/caches/transforms-2/files-2.1/fc8046cb9a5df9499609a5f7f8270b1b/play-services-base-17.0.0/AndroidManifest.xml:24:13-79
meta-data#com.google.android.gms.version
ADDED from [com.google.android.gms:play-services-basement:17.0.0] /Users/macbookm1pro/.gradle/caches/transforms-2/files-2.1/76f078f561b222e800a21b70aa1a106b/jetified-play-services-basement-17.0.0/AndroidManifest.xml:23:9-25:69
	android:value
		ADDED from [com.google.android.gms:play-services-basement:17.0.0] /Users/macbookm1pro/.gradle/caches/transforms-2/files-2.1/76f078f561b222e800a21b70aa1a106b/jetified-play-services-basement-17.0.0/AndroidManifest.xml:25:13-66
	android:name
		ADDED from [com.google.android.gms:play-services-basement:17.0.0] /Users/macbookm1pro/.gradle/caches/transforms-2/files-2.1/76f078f561b222e800a21b70aa1a106b/jetified-play-services-basement-17.0.0/AndroidManifest.xml:24:13-58
